ProjetoRelogio/simulation/qsim/contadorHMS.msim.vcd
$comment
	File created using the following command:
		vcd file contadorHMS.msim.vcd -direction
$end
$date
	Mon Jun 04 22:58:29 2018
$end
$version
	ModelSim Version 10.1d
$end
$timescale
	1ps
$end
$scope module contadorHMS_vlg_vec_tst $end
$var reg 1 ! clock_in_ocilador $end
$var wire 1 " outH [4] $end
$var wire 1 # outH [3] $end
$var wire 1 $ outH [2] $end
$var wire 1 % outH [1] $end
$var wire 1 & outH [0] $end
$var wire 1 ' outM [5] $end
$var wire 1 ( outM [4] $end
$var wire 1 ) outM [3] $end
$var wire 1 * outM [2] $end
$var wire 1 + outM [1] $end
$var wire 1 , outM [0] $end
$var wire 1 - outS [5] $end
$var wire 1 . outS [4] $end
$var wire 1 / outS [3] $end
$var wire 1 0 outS [2] $end
$var wire 1 1 outS [1] $end
$var wire 1 2 outS [0] $end
$var wire 1 3 sampler $end
$scope module i1 $end
$var wire 1 4 gnd $end
$var wire 1 5 vcc $end
$var wire 1 6 unknown $end
$var tri1 1 7 devclrn $end
$var tri1 1 8 devpor $end
$var tri1 1 9 devoe $end
$var wire 1 : DIVS|Add0~0_combout $end
$var wire 1 ; DIVS|Add0~6_combout $end
$var wire 1 < DIVS|Add0~10_combout $end
$var wire 1 = DIVS|Add0~18_combout $end
$var wire 1 > DIVS|Add0~36_combout $end
$var wire 1 ? DIVS|Add0~47 $end
$var wire 1 @ DIVS|Add0~48_combout $end
$var wire 1 A DIVS|Add0~49 $end
$var wire 1 B DIVS|Add0~50_combout $end
$var wire 1 C DIVM|Add0~0_combout $end
$var wire 1 D DIVM|Add0~2_combout $end
$var wire 1 E DIVS|Equal0~0_combout $end
$var wire 1 F DIVS|Equal0~7_combout $end
$var wire 1 G DIVM|Equal0~0_combout $end
$var wire 1 H DIVS|cont~12_combout $end
$var wire 1 I clock_in_ocilador~combout $end
$var wire 1 J clock_in_ocilador~clkctrl_outclk $end
$var wire 1 K DIVS|cont~1_combout $end
$var wire 1 L DIVS|Add0~1 $end
$var wire 1 M DIVS|Add0~2_combout $end
$var wire 1 N DIVS|Add0~3 $end
$var wire 1 O DIVS|Add0~5 $end
$var wire 1 P DIVS|Add0~7 $end
$var wire 1 Q DIVS|Add0~8_combout $end
$var wire 1 R DIVS|Add0~9 $end
$var wire 1 S DIVS|Add0~11 $end
$var wire 1 T DIVS|Add0~12_combout $end
$var wire 1 U DIVS|Add0~13 $end
$var wire 1 V DIVS|Add0~14_combout $end
$var wire 1 W DIVS|cont~0_combout $end
$var wire 1 X DIVS|Add0~15 $end
$var wire 1 Y DIVS|Add0~16_combout $end
$var wire 1 Z DIVS|Add0~17 $end
$var wire 1 [ DIVS|Add0~19 $end
$var wire 1 \ DIVS|Add0~20_combout $end
$var wire 1 ] DIVS|Add0~21 $end
$var wire 1 ^ DIVS|Add0~22_combout $end
$var wire 1 _ DIVS|Add0~23 $end
$var wire 1 ` DIVS|Add0~25 $end
$var wire 1 a DIVS|Add0~26_combout $end
$var wire 1 b DIVS|cont~3_combout $end
$var wire 1 c DIVS|Add0~27 $end
$var wire 1 d DIVS|Add0~29 $end
$var wire 1 e DIVS|Add0~30_combout $end
$var wire 1 f DIVS|cont~5_combout $end
$var wire 1 g DIVS|Add0~31 $end
$var wire 1 h DIVS|Add0~33 $end
$var wire 1 i DIVS|Add0~34_combout $end
$var wire 1 j DIVS|cont~6_combout $end
$var wire 1 k DIVS|Add0~35 $end
$var wire 1 l DIVS|Add0~37 $end
$var wire 1 m DIVS|Add0~38_combout $end
$var wire 1 n DIVS|cont~7_combout $end
$var wire 1 o DIVS|Add0~39 $end
$var wire 1 p DIVS|Add0~40_combout $end
$var wire 1 q DIVS|cont~8_combout $end
$var wire 1 r DIVS|Add0~41 $end
$var wire 1 s DIVS|Add0~42_combout $end
$var wire 1 t DIVS|cont~9_combout $end
$var wire 1 u DIVS|Add0~43 $end
$var wire 1 v DIVS|Add0~44_combout $end
$var wire 1 w DIVS|cont~10_combout $end
$var wire 1 x DIVS|Add0~45 $end
$var wire 1 y DIVS|Add0~46_combout $end
$var wire 1 z DIVS|cont~11_combout $end
$var wire 1 { DIVS|Equal0~6_combout $end
$var wire 1 | DIVS|Add0~4_combout $end
$var wire 1 } DIVS|Equal0~1_combout $end
$var wire 1 ~ DIVS|Equal0~2_combout $end
$var wire 1 !! DIVS|Add0~28_combout $end
$var wire 1 "! DIVS|cont~4_combout $end
$var wire 1 #! DIVS|Add0~24_combout $end
$var wire 1 $! DIVS|cont~2_combout $end
$var wire 1 %! DIVS|Equal0~3_combout $end
$var wire 1 &! DIVS|Equal0~4_combout $end
$var wire 1 '! DIVS|Add0~32_combout $end
$var wire 1 (! DIVS|Equal0~5_combout $end
$var wire 1 )! DIVS|Equal0~8_combout $end
$var wire 1 *! DIVS|umSegundo~0_combout $end
$var wire 1 +! DIVS|umSegundo~regout $end
$var wire 1 ,! DIVS|umSegundo~clkctrl_outclk $end
$var wire 1 -! FF0S|qsignal~0_combout $end
$var wire 1 .! FF0S|qsignal~regout $end
$var wire 1 /! FF1S|qsignal~0_combout $end
$var wire 1 0! FF1S|qsignal~regout $end
$var wire 1 1! FF2S|qsignal~0_combout $end
$var wire 1 2! FF2S|qsignal~regout $end
$var wire 1 3! FF4S|qsignal~0_combout $end
$var wire 1 4! FF4S|qsignal~regout $end
$var wire 1 5! stopS~0_combout $end
$var wire 1 6! FF5S|qsignal~0_combout $end
$var wire 1 7! FF5S|qsignal~regout $end
$var wire 1 8! FF3S|qsignal~0_combout $end
$var wire 1 9! FF3S|qsignal~regout $end
$var wire 1 :! DIVM|Add0~1 $end
$var wire 1 ;! DIVM|Add0~3 $end
$var wire 1 <! DIVM|Add0~4_combout $end
$var wire 1 =! DIVM|contSegundo~1_combout $end
$var wire 1 >! DIVM|Add0~5 $end
$var wire 1 ?! DIVM|Add0~6_combout $end
$var wire 1 @! DIVM|contSegundo~0_combout $end
$var wire 1 A! DIVM|Add0~7 $end
$var wire 1 B! DIVM|Add0~9 $end
$var wire 1 C! DIVM|Add0~10_combout $end
$var wire 1 D! DIVM|contSegundo~3_combout $end
$var wire 1 E! DIVM|Add0~8_combout $end
$var wire 1 F! DIVM|contSegundo~2_combout $end
$var wire 1 G! DIVM|umMinuto~0_combout $end
$var wire 1 H! DIVM|umMinuto~regout $end
$var wire 1 I! DIVM|umMinuto~clkctrl_outclk $end
$var wire 1 J! FF0M|qsignal~0_combout $end
$var wire 1 K! FF0M|qsignal~regout $end
$var wire 1 L! FF1M|qsignal~0_combout $end
$var wire 1 M! FF1M|qsignal~regout $end
$var wire 1 N! FF2M|qsignal~0_combout $end
$var wire 1 O! FF2M|qsignal~regout $end
$var wire 1 P! FF5M|qsignal~0_combout $end
$var wire 1 Q! FF5M|qsignal~regout $end
$var wire 1 R! FF4M|qsignal~0_combout $end
$var wire 1 S! FF4M|qsignal~regout $end
$var wire 1 T! stopM~0_combout $end
$var wire 1 U! FF3M|qsignal~0_combout $end
$var wire 1 V! FF3M|qsignal~regout $end
$var wire 1 W! DIVH|Add0~0_combout $end
$var wire 1 X! DIVH|Add0~1 $end
$var wire 1 Y! DIVH|Add0~2_combout $end
$var wire 1 Z! DIVH|Equal0~0_combout $end
$var wire 1 [! DIVH|Add0~3 $end
$var wire 1 \! DIVH|Add0~4_combout $end
$var wire 1 ]! DIVH|contMinuto~1_combout $end
$var wire 1 ^! DIVH|Add0~5 $end
$var wire 1 _! DIVH|Add0~6_combout $end
$var wire 1 `! DIVH|contMinuto~0_combout $end
$var wire 1 a! DIVH|Add0~7 $end
$var wire 1 b! DIVH|Add0~9 $end
$var wire 1 c! DIVH|Add0~10_combout $end
$var wire 1 d! DIVH|contMinuto~3_combout $end
$var wire 1 e! DIVH|Add0~8_combout $end
$var wire 1 f! DIVH|contMinuto~2_combout $end
$var wire 1 g! DIVH|umHora~0_combout $end
$var wire 1 h! DIVH|umHora~regout $end
$var wire 1 i! FF0H|qsignal~0_combout $end
$var wire 1 j! FF0H|qsignal~regout $end
$var wire 1 k! FF1H|qsignal~0_combout $end
$var wire 1 l! FF1H|qsignal~regout $end
$var wire 1 m! FF2H|qsignal~0_combout $end
$var wire 1 n! FF2H|qsignal~regout $end
$var wire 1 o! FF3H|qsignal~0_combout $end
$var wire 1 p! FF3H|qsignal~regout $end
$var wire 1 q! FF4H|qsignal~0_combout $end
$var wire 1 r! FF4H|qsignal~regout $end
$var wire 1 s! DIVH|contMinuto [5] $end
$var wire 1 t! DIVH|contMinuto [4] $end
$var wire 1 u! DIVH|contMinuto [3] $end
$var wire 1 v! DIVH|contMinuto [2] $end
$var wire 1 w! DIVH|contMinuto [1] $end
$var wire 1 x! DIVH|contMinuto [0] $end
$var wire 1 y! DIVS|cont [25] $end
$var wire 1 z! DIVS|cont [24] $end
$var wire 1 {! DIVS|cont [23] $end
$var wire 1 |! DIVS|cont [22] $end
$var wire 1 }! DIVS|cont [21] $end
$var wire 1 ~! DIVS|cont [20] $end
$var wire 1 !" DIVS|cont [19] $end
$var wire 1 "" DIVS|cont [18] $end
$var wire 1 #" DIVS|cont [17] $end
$var wire 1 $" DIVS|cont [16] $end
$var wire 1 %" DIVS|cont [15] $end
$var wire 1 &" DIVS|cont [14] $end
$var wire 1 '" DIVS|cont [13] $end
$var wire 1 (" DIVS|cont [12] $end
$var wire 1 )" DIVS|cont [11] $end
$var wire 1 *" DIVS|cont [10] $end
$var wire 1 +" DIVS|cont [9] $end
$var wire 1 ," DIVS|cont [8] $end
$var wire 1 -" DIVS|cont [7] $end
$var wire 1 ." DIVS|cont [6] $end
$var wire 1 /" DIVS|cont [5] $end
$var wire 1 0" DIVS|cont [4] $end
$var wire 1 1" DIVS|cont [3] $end
$var wire 1 2" DIVS|cont [2] $end
$var wire 1 3" DIVS|cont [1] $end
$var wire 1 4" DIVS|cont [0] $end
$var wire 1 5" DIVM|contSegundo [5] $end
$var wire 1 6" DIVM|contSegundo [4] $end
$var wire 1 7" DIVM|contSegundo [3] $end
$var wire 1 8" DIVM|contSegundo [2] $end
$var wire 1 9" DIVM|contSegundo [1] $end
$var wire 1 :" DIVM|contSegundo [0] $end
$upscope $end
$upscope $end
$enddefinitions $end
#0
$dumpvars
0!
x&
x%
x$
x#
x"
x,
x+
x*
x)
x(
x'
x2
x1
x0
x/
x.
x-
x3
04
15
x6
17
18
19
0:
0;
0<
0=
0>
1?
0@
0A
0B
1C
0D
0E
0F
0G
0H
0I
0J
1K
1L
1M
1N
0O
1P
0Q
0R
1S
0T
0U
0V
0W
1X
0Y
0Z
1[
0\
0]
0^
1_
0`
0a
0b
1c
0d
0e
0f
1g
0h
0i
0j
1k
0l
0m
0n
1o
0p
0q
0r
0s
0t
1u
0v
0w
0x
0y
0z
0{
0|
0}
1~
0!!
0"!
0#!
0$!
0%!
0&!
0'!
0(!
0)!
0*!
0+!
0,!
x-!
x.!
x/!
x0!
x1!
x2!
x3!
x4!
x5!
x6!
x7!
x8!
x9!
0:!
1;!
0<!
0=!
0>!
0?!
0@!
1A!
0B!
0C!
0D!
0E!
0F!
0G!
0H!
0I!
xJ!
xK!
xL!
xM!
xN!
xO!
xP!
xQ!
xR!
xS!
xT!
xU!
xV!
1W!
0X!
0Y!
0Z!
1[!
0\!
0]!
0^!
0_!
0`!
1a!
0b!
0c!
0d!
0e!
0f!
0g!
0h!
xi!
xj!
xk!
xl!
xm!
xn!
xo!
xp!
xq!
xr!
0x!
0w!
0v!
0u!
0t!
0s!
04"
03"
02"
01"
00"
0/"
0."
0-"
0,"
0+"
0*"
0)"
0("
0'"
0&"
0%"
0$"
0#"
0""
0!"
0~!
0}!
0|!
0{!
0z!
0y!
0:"
09"
08"
07"
06"
05"
$end
#500
1!
1I
1J
03
13"
14"
0N
0M
0L
1:
1|
1N
1M
0K
0|
#1000
0!
0I
0J
13
#1500
1!
1I
1J
03
04"
1L
0:
0N
0M
1K
1|
#2000
0!
0I
0J
13
#2500
1!
1I
1J
03
12"
03"
14"
1O
0|
1N
1M
0L
1:
1;
0O
1|
0M
0K
0;
#3000
0!
0I
0J
13
#3500
1!
1I
1J
03
04"
1L
0:
1M
1K
#4000
0!
0I
0J
13
#4500
1!
1I
1J
03
13"
14"
0N
0M
0L
1:
1O
0|
1N
1M
0K
1;
0O
1|
0;
#5000
0!
0I
0J
13
#5500
1!
1I
1J
03
04"
1L
0:
0N
0M
1K
1O
0|
1;
#6000
0!
0I
0J
13
#6500
1!
1I
1J
03
02"
03"
14"
11"
0O
1|
1N
1M
0L
1:
0P
0;
1P
1;
0|
0M
0K
1Q
0Q
#7000
0!
0I
0J
13
#7500
1!
1I
1J
03
04"
1L
0:
1M
1K
#8000
0!
0I
0J
13
#8500
1!
1I
1J
03
13"
14"
0N
0M
0L
1:
1|
1N
1M
0K
0|
#9000
0!
0I
0J
13
#9500
1!
1I
1J
03
04"
1L
0:
0N
0M
1K
1|
#10000
0!
0I
0J
13
#10500
1!
1I
1J
03
12"
03"
14"
1O
0|
1N
1M
0L
1:
0P
0;
0O
1|
0M
0K
1Q
1P
1;
0Q
#11000
0!
0I
0J
13
#11500
1!
1I
1J
03
04"
1L
0:
1M
1K
#12000
0!
0I
0J
13
#12500
1!
1I
1J
03
13"
14"
0N
0M
0L
1:
1O
0|
1N
1M
0K
0P
0;
0O
1|
1Q
1P
1;
0Q
#13000
0!
0I
0J
13
#13500
1!
1I
1J
03
04"
1L
0:
0N
0M
1K
1O
0|
0P
0;
1Q
#14000
0!
0I
0J
13
#14500
1!
1I
1J
03
02"
10"
03"
14"
01"
1}
0O
1|
1R
0Q
1N
1M
0L
1:
1P
1;
0;
1<
0|
0M
0K
0R
1Q
0<
#15000
0!
0I
0J
13
#15500
1!
1I
1J
03
04"
0}
1L
0:
1M
1K
#16000
0!
0I
0J
13
#16500
1!
1I
1J
03
13"
14"
0N
0M
0L
1:
1|
1N
1M
0K
0|
#17000
0!
0I
0J
13
#17500
1!
1I
1J
03
04"
1L
0:
0N
0M
1K
1|
#18000
0!
0I
0J
13
#18500
1!
1I
1J
03
12"
03"
14"
1O
0|
1N
1M
0L
1:
1;
0O
1|
0M
0K
0;
#19000
0!
0I
0J
13
#19500
1!
1I
1J
03
04"
1L
0:
1M
1K
#20000
0!
0I
0J
13
#20500
1!
1I
1J
03
13"
14"
0N
0M
0L
1:
1O
0|
1N
1M
0K
1;
0O
1|
0;
#21000
0!
0I
0J
13
#21500
1!
1I
1J
03
04"
1L
0:
0N
0M
1K
1O
0|
1;
#22000
0!
0I
0J
13
#22500
1!
1I
1J
03
02"
03"
14"
11"
0O
1|
1N
1M
0L
1:
0P
0;
1P
1;
0|
0M
0K
1R
0Q
0R
1Q
1<
0<
#23000
0!
0I
0J
13
#23500
1!
1I
1J
03
04"
1L
0:
1M
1K
#24000
0!
0I
0J
13
#24500
1!
1I
1J
03
13"
14"
0N
0M
0L
1:
1|
1N
1M
0K
0|
#25000
0!
0I
0J
13
#25500
1!
1I
1J
03
04"
1L
0:
0N
0M
1K
1|
#26000
0!
0I
0J
13
#26500
1!
1I
1J
03
12"
03"
14"
1O
0|
1N
1M
0L
1:
0P
0;
0O
1|
0M
0K
1R
0Q
1P
1;
1<
0R
1Q
0<
#27000
0!
0I
0J
13
#27500
1!
1I
1J
03
04"
1L
0:
1M
1K
#28000
0!
0I
0J
13
#28500
1!
1I
1J
03
13"
14"
0N
0M
0L
1:
1O
0|
1N
1M
0K
0P
0;
0O
1|
1R
0Q
1P
1;
1<
0R
1Q
0<
#29000
0!
0I
0J
13
#29500
1!
1I
1J
03
04"
1L
0:
0N
0M
1K
1O
0|
0P
0;
1R
0Q
1<
#30000
0!
0I
0J
13
#30500
1!
1I
1J
03
02"
00"
03"
14"
01"
1/"
1}
0O
1|
0R
1Q
1N
1M
0L
1:
1P
1;
0S
0<
0;
1S
1<
0|
0M
0K
0Q
1T
0T
#31000
0!
0I
0J
13
#31500
1!
1I
1J
03
04"
0}
1L
0:
1M
1K
#32000
0!
0I
0J
13
#32500
1!
1I
1J
03
13"
14"
0N
0M
0L
1:
1|
1N
1M
0K
0|
#33000
0!
0I
0J
13
#33500
1!
1I
1J
03
04"
1L
0:
0N
0M
1K
1|
#34000
0!
0I
0J
13
#34500
1!
1I
1J
03
12"
03"
14"
1O
0|
1N
1M
0L
1:
1;
0O
1|
0M
0K
0;
#35000
0!
0I
0J
13
#35500
1!
1I
1J
03
04"
1L
0:
1M
1K
#36000
0!
0I
0J
13
#36500
1!
1I
1J
03
13"
14"
0N
0M
0L
1:
1O
0|
1N
1M
0K
1;
0O
1|
0;
#37000
0!
0I
0J
13
#37500
1!
1I
1J
03
04"
1L
0:
0N
0M
1K
1O
0|
1;
#38000
0!
0I
0J
13
#38500
1!
1I
1J
03
02"
03"
14"
11"
0O
1|
1N
1M
0L
1:
0P
0;
1P
1;
0|
0M
0K
1Q
0Q
#39000
0!
0I
0J
13
#39500
1!
1I
1J
03
04"
1L
0:
1M
1K
#40000
0!
0I
0J
13
#40500
1!
1I
1J
03
13"
14"
0N
0M
0L
1:
1|
1N
1M
0K
0|
#41000
0!
0I
0J
13
#41500
1!
1I
1J
03
04"
1L
0:
0N
0M
1K
1|
#42000
0!
0I
0J
13
#42500
1!
1I
1J
03
12"
03"
14"
1O
0|
1N
1M
0L
1:
0P
0;
0O
1|
0M
0K
1Q
1P
1;
0Q
#43000
0!
0I
0J
13
#43500
1!
1I
1J
03
04"
1L
0:
1M
1K
#44000
0!
0I
0J
13
#44500
1!
1I
1J
03
13"
14"
0N
0M
0L
1:
1O
0|
1N
1M
0K
0P
0;
0O
1|
1Q
1P
1;
0Q
#45000
0!
0I
0J
13
#45500
1!
1I
1J
03
04"
1L
0:
0N
0M
1K
1O
0|
0P
0;
1Q
#46000
0!
0I
0J
13
#46500
1!
1I
1J
03
02"
10"
03"
14"
01"
1}
0O
1|
1R
0Q
1N
1M
0L
1:
1P
1;
0;
0S
0<
0|
0M
0K
0R
1Q
1T
1S
1<
0T
#47000
0!
0I
0J
13
#47500
1!
1I
1J
03
04"
0}
1L
0:
1M
1K
#48000
0!
0I
0J
13
#48500
1!
1I
1J
03
13"
14"
0N
0M
0L
1:
1|
1N
1M
0K
0|
#49000
0!
0I
0J
13
#49500
1!
1I
1J
03
04"
1L
0:
0N
0M
1K
1|
#50000
0!
0I
0J
13
#50500
1!
1I
1J
03
12"
03"
14"
1O
0|
1N
1M
0L
1:
1;
0O
1|
0M
0K
0;
#51000
0!
0I
0J
13
#51500
1!
1I
1J
03
04"
1L
0:
1M
1K
#52000
0!
0I
0J
13
#52500
1!
1I
1J
03
13"
14"
0N
0M
0L
1:
1O
0|
1N
1M
0K
1;
0O
1|
0;
#53000
0!
0I
0J
13
#53500
1!
1I
1J
03
04"
1L
0:
0N
0M
1K
1O
0|
1;
#54000
0!
0I
0J
13
#54500
1!
1I
1J
03
02"
03"
14"
11"
0O
1|
1N
1M
0L
1:
0P
0;
1P
1;
0|
0M
0K
1R
0Q
0R
1Q
0S
0<
1S
1<
1T
0T
#55000
0!
0I
0J
13
#55500
1!
1I
1J
03
04"
1L
0:
1M
1K
#56000
0!
0I
0J
13
#56500
1!
1I
1J
03
13"
14"
0N
0M
0L
1:
1|
1N
1M
0K
0|
#57000
0!
0I
0J
13
#57500
1!
1I
1J
03
04"
1L
0:
0N
0M
1K
1|
#58000
0!
0I
0J
13
#58500
1!
1I
1J
03
12"
03"
14"
1O
0|
1N
1M
0L
1:
0P
0;
0O
1|
0M
0K
1R
0Q
1P
1;
0S
0<
0R
1Q
1T
1S
1<
0T
#59000
0!
0I
0J
13
#59500
1!
1I
1J
03
04"
1L
0:
1M
1K
#60000
0!
0I
0J
13
#60500
1!
1I
1J
03
13"
14"
0N
0M
0L
1:
1O
0|
1N
1M
0K
0P
0;
0O
1|
1R
0Q
1P
1;
0S
0<
0R
1Q
1T
1S
1<
0T
#61000
0!
0I
0J
13
#61500
1!
1I
1J
03
04"
1L
0:
0N
0M
1K
1O
0|
0P
0;
1R
0Q
0S
0<
1T
#62000
0!
0I
0J
13
#62500
1!
1I
1J
03
02"
1."
00"
03"
14"
01"
0/"
1}
0O
1|
1U
0T
0R
1Q
1N
1M
0L
1:
1P
1;
1S
1<
0;
1V
0<
0|
0M
0K
0Q
0U
1T
1W
0V
0W
#63000
0!
0I
0J
13
#63500
1!
1I
1J
03
04"
0}
1L
0:
1M
1K
#64000
0!
0I
0J
13
#64500
1!
1I
1J
03
13"
14"
0N
0M
0L
1:
1|
1N
1M
0K
0|
#65000
0!
0I
0J
13
#65500
1!
1I
1J
03
04"
1L
0:
0N
0M
1K
1|
#66000
0!
0I
0J
13
#66500
1!
1I
1J
03
12"
03"
14"
1O
0|
1N
1M
0L
1:
1;
0O
1|
0M
0K
0;
#67000
0!
0I
0J
13
#67500
1!
1I
1J
03
04"
1L
0:
1M
1K
#68000
0!
0I
0J
13
#68500
1!
1I
1J
03
13"
14"
0N
0M
0L
1:
1O
0|
1N
1M
0K
1;
0O
1|
0;
#69000
0!
0I
0J
13
#69500
1!
1I
1J
03
04"
1L
0:
0N
0M
1K
1O
0|
1;
#70000
0!
0I
0J
13
#70500
1!
1I
1J
03
02"
03"
14"
11"
0O
1|
1N
1M
0L
1:
0P
0;
1P
1;
0|
0M
0K
1Q
0Q
#71000
0!
0I
0J
13
#71500
1!
1I
1J
03
04"
1L
0:
1M
1K
#72000
0!
0I
0J
13
#72500
1!
1I
1J
03
13"
14"
0N
0M
0L
1:
1|
1N
1M
0K
0|
#73000
0!
0I
0J
13
#73500
1!
1I
1J
03
04"
1L
0:
0N
0M
1K
1|
#74000
0!
0I
0J
13
#74500
1!
1I
1J
03
12"
03"
14"
1O
0|
1N
1M
0L
1:
0P
0;
0O
1|
0M
0K
1Q
1P
1;
0Q
#75000
0!
0I
0J
13
#75500
1!
1I
1J
03
04"
1L
0:
1M
1K
#76000
0!
0I
0J
13
#76500
1!
1I
1J
03
13"
14"
0N
0M
0L
1:
1O
0|
1N
1M
0K
0P
0;
0O
1|
1Q
1P
1;
0Q
#77000
0!
0I
0J
13
#77500
1!
1I
1J
03
04"
1L
0:
0N
0M
1K
1O
0|
0P
0;
1Q
#78000
0!
0I
0J
13
#78500
1!
1I
1J
03
02"
10"
03"
14"
01"
1}
0O
1|
1R
0Q
1N
1M
0L
1:
1P
1;
0;
1<
0|
0M
0K
0R
1Q
0<
#79000
0!
0I
0J
13
#79500
1!
1I
1J
03
04"
0}
1L
0:
1M
1K
#80000
0!
0I
0J
13
#80500
1!
1I
1J
03
13"
14"
0N
0M
0L
1:
1|
1N
1M
0K
0|
#81000
0!
0I
0J
13
#81500
1!
1I
1J
03
04"
1L
0:
0N
0M
1K
1|
#82000
0!
0I
0J
13
#82500
1!
1I
1J
03
12"
03"
14"
1O
0|
1N
1M
0L
1:
1;
0O
1|
0M
0K
0;
#83000
0!
0I
0J
13
#83500
1!
1I
1J
03
04"
1L
0:
1M
1K
#84000
0!
0I
0J
13
#84500
1!
1I
1J
03
13"
14"
0N
0M
0L
1:
1O
0|
1N
1M
0K
1;
0O
1|
0;
#85000
0!
0I
0J
13
#85500
1!
1I
1J
03
04"
1L
0:
0N
0M
1K
1O
0|
1;
#86000
0!
0I
0J
13
#86500
1!
1I
1J
03
02"
03"
14"
11"
0O
1|
1N
1M
0L
1:
0P
0;
1P
1;
0|
0M
0K
1R
0Q
0R
1Q
1<
0<
#87000
0!
0I
0J
13
#87500
1!
1I
1J
03
04"
1L
0:
1M
1K
#88000
0!
0I
0J
13
#88500
1!
1I
1J
03
13"
14"
0N
0M
0L
1:
1|
1N
1M
0K
0|
#89000
0!
0I
0J
13
#89500
1!
1I
1J
03
04"
1L
0:
0N
0M
1K
1|
#90000
0!
0I
0J
13
#90500
1!
1I
1J
03
12"
03"
14"
1O
0|
1N
1M
0L
1:
0P
0;
0O
1|
0M
0K
1R
0Q
1P
1;
1<
0R
1Q
0<
#91000
0!
0I
0J
13
#91500
1!
1I
1J
03
04"
1L
0:
1M
1K
#92000
0!
0I
0J
13
#92500
1!
1I
1J
03
13"
14"
0N
0M
0L
1:
1O
0|
1N
1M
0K
0P
0;
0O
1|
1R
0Q
1P
1;
1<
0R
1Q
0<
#93000
0!
0I
0J
13
#93500
1!
1I
1J
03
04"
1L
0:
0N
0M
1K
1O
0|
0P
0;
1R
0Q
1<
#94000
0!
0I
0J
13
#94500
1!
1I
1J
03
02"
00"
03"
14"
01"
1/"
1}
0O
1|
0R
1Q
1N
1M
0L
1:
1P
1;
0S
0<
0;
1S
1<
0|
0M
0K
0Q
1U
0T
0U
1T
1V
0V
1W
0W
#95000
0!
0I
0J
13
#95500
1!
1I
1J
03
04"
0}
1L
0:
1M
1K
#96000
0!
0I
0J
13
#96500
1!
1I
1J
03
13"
14"
0N
0M
0L
1:
1|
1N
1M
0K
0|
#97000
0!
0I
0J
13
#97500
1!
1I
1J
03
04"
1L
0:
0N
0M
1K
1|
#98000
0!
0I
0J
13
#98500
1!
1I
1J
03
12"
03"
14"
1O
0|
1N
1M
0L
1:
1;
0O
1|
0M
0K
0;
#99000
0!
0I
0J
13
#99500
1!
1I
1J
03
04"
1L
0:
1M
1K
#100000
0!
0I
0J
13
#100500
1!
1I
1J
03
13"
14"
0N
0M
0L
1:
1O
0|
1N
1M
0K
1;
0O
1|
0;
#101000
0!
0I
0J
13
#101500
1!
1I
1J
03
04"
1L
0:
0N
0M
1K
1O
0|
1;
#102000
0!
0I
0J
13
#102500
1!
1I
1J
03
02"
03"
14"
11"
0O
1|
1N
1M
0L
1:
0P
0;
1P
1;
0|
0M
0K
1Q
0Q
#103000
0!
0I
0J
13
#103500
1!
1I
1J
03
04"
1L
0:
1M
1K
#104000
0!
0I
0J
13
#104500
1!
1I
1J
03
13"
14"
0N
0M
0L
1:
1|
1N
1M
0K
0|
#105000
0!
0I
0J
13
#105500
1!
1I
1J
03
04"
1L
0:
0N
0M
1K
1|
#106000
0!
0I
0J
13
#106500
1!
1I
1J
03
12"
03"
14"
1O
0|
1N
1M
0L
1:
0P
0;
0O
1|
0M
0K
1Q
1P
1;
0Q
#107000
0!
0I
0J
13
#107500
1!
1I
1J
03
04"
1L
0:
1M
1K
#108000
0!
0I
0J
13
#108500
1!
1I
1J
03
13"
14"
0N
0M
0L
1:
1O
0|
1N
1M
0K
0P
0;
0O
1|
1Q
1P
1;
0Q
#109000
0!
0I
0J
13
#109500
1!
1I
1J
03
04"
1L
0:
0N
0M
1K
1O
0|
0P
0;
1Q
#110000
0!
0I
0J
13
#110500
1!
1I
1J
03
02"
10"
03"
14"
01"
1}
0O
1|
1R
0Q
1N
1M
0L
1:
1P
1;
0;
0S
0<
0|
0M
0K
0R
1Q
1U
0T
1S
1<
1V
0U
1T
1W
0V
0W
#111000
0!
0I
0J
13
#111500
1!
1I
1J
03
04"
0}
1L
0:
1M
1K
#112000
0!
0I
0J
13
#112500
1!
1I
1J
03
13"
14"
0N
0M
0L
1:
1|
1N
1M
0K
0|
#113000
0!
0I
0J
13
#113500
1!
1I
1J
03
04"
1L
0:
0N
0M
1K
1|
#114000
0!
0I
0J
13
#114500
1!
1I
1J
03
12"
03"
14"
1O
0|
1N
1M
0L
1:
1;
0O
1|
0M
0K
0;
#115000
0!
0I
0J
13
#115500
1!
1I
1J
03
04"
1L
0:
1M
1K
#116000
0!
0I
0J
13
#116500
1!
1I
1J
03
13"
14"
0N
0M
0L
1:
1O
0|
1N
1M
0K
1;
0O
1|
0;
#117000
0!
0I
0J
13
#117500
1!
1I
1J
03
04"
1L
0:
0N
0M
1K
1O
0|
1;
#118000
0!
0I
0J
13
#118500
1!
1I
1J
03
02"
03"
14"
11"
0O
1|
1N
1M
0L
1:
0P
0;
1P
1;
0|
0M
0K
1R
0Q
0R
1Q
0S
0<
1S
1<
1U
0T
0U
1T
1V
0V
1W
0W
#119000
0!
0I
0J
13
#119500
1!
1I
1J
03
04"
1L
0:
1M
1K
#120000
0!
0I
0J
13
#120500
1!
1I
1J
03
13"
14"
0N
0M
0L
1:
1|
1N
1M
0K
0|
#121000
0!
0I
0J
13
#121500
1!
1I
1J
03
04"
1L
0:
0N
0M
1K
1|
#122000
0!
0I
0J
13
#122500
1!
1I
1J
03
12"
03"
14"
1O
0|
1N
1M
0L
1:
0P
0;
0O
1|
0M
0K
1R
0Q
1P
1;
0S
0<
0R
1Q
1U
0T
1S
1<
1V
0U
1T
1W
0V
0W
#123000
0!
0I
0J
13
#123500
1!
1I
1J
03
04"
1L
0:
1M
1K
#124000
0!
0I
0J
13
#124500
1!
1I
1J
03
13"
14"
0N
0M
0L
1:
1O
0|
1N
1M
0K
0P
0;
0O
1|
1R
0Q
1P
1;
0S
0<
0R
1Q
1U
0T
1S
1<
1V
0U
1T
1W
0V
0W
#125000
0!
0I
0J
13
#125500
1!
1I
1J
03
04"
1L
0:
0N
0M
1K
1O
0|
0P
0;
1R
0Q
0S
0<
1U
0T
1V
1W
#126000
0!
0I
0J
13
#126500
1!
1I
1J
03
02"
1-"
0."
00"
03"
14"
01"
0/"
1}
0O
1|
0X
0V
1E
0U
1T
0R
1Q
1N
1M
0L
1:
1P
1;
1S
1<
0;
1Y
0W
1X
1V
0<
0|
0M
0K
0Q
0T
0Y
1W
#127000
0!
0I
0J
13
#127500
1!
1I
1J
03
04"
0}
1L
0:
1M
1K
#128000
0!
0I
0J
13
#128500
1!
1I
1J
03
13"
14"
0N
0M
0L
1:
1|
1N
1M
0K
0|
#129000
0!
0I
0J
13
#129500
1!
1I
1J
03
04"
1L
0:
0N
0M
1K
1|
#130000
0!
0I
0J
13
#130500
1!
1I
1J
03
12"
03"
14"
1O
0|
1N
1M
0L
1:
1;
0O
1|
0M
0K
0;
