DIVCLOCK/simulation/qsim/clock_div.msim.vcd
$comment
	File created using the following command:
		vcd file clock_div.msim.vcd -direction
$end
$date
	Wed Jun 06 03:08:42 2018
$end
$version
	ModelSim Version 10.1d
$end
$timescale
	1ps
$end
$scope module clock_div_vlg_vec_tst $end
$var reg 1 ! clock_in $end
$var wire 1 " clock_out $end
$var wire 1 # count [24] $end
$var wire 1 $ count [23] $end
$var wire 1 % count [22] $end
$var wire 1 & count [21] $end
$var wire 1 ' count [20] $end
$var wire 1 ( count [19] $end
$var wire 1 ) count [18] $end
$var wire 1 * count [17] $end
$var wire 1 + count [16] $end
$var wire 1 , count [15] $end
$var wire 1 - count [14] $end
$var wire 1 . count [13] $end
$var wire 1 / count [12] $end
$var wire 1 0 count [11] $end
$var wire 1 1 count [10] $end
$var wire 1 2 count [9] $end
$var wire 1 3 count [8] $end
$var wire 1 4 count [7] $end
$var wire 1 5 count [6] $end
$var wire 1 6 count [5] $end
$var wire 1 7 count [4] $end
$var wire 1 8 count [3] $end
$var wire 1 9 count [2] $end
$var wire 1 : count [1] $end
$var wire 1 ; count [0] $end
$var wire 1 < sampler $end
$scope module i1 $end
$var wire 1 = gnd $end
$var wire 1 > vcc $end
$var wire 1 ? unknown $end
$var tri1 1 @ devclrn $end
$var tri1 1 A devpor $end
$var tri1 1 B devoe $end
$var wire 1 C Equal0~1_combout $end
$var wire 1 D Equal0~6_combout $end
$var wire 1 E clock_in~combout $end
$var wire 1 F clock_in~clkctrl_outclk $end
$var wire 1 G count[0]~72_combout $end
$var wire 1 H count[1]~25 $end
$var wire 1 I count[2]~27 $end
$var wire 1 J count[3]~28_combout $end
$var wire 1 K count[3]~reg0_regout $end
$var wire 1 L count[3]~29 $end
$var wire 1 M count[4]~30_combout $end
$var wire 1 N count[4]~reg0_regout $end
$var wire 1 O count[4]~31 $end
$var wire 1 P count[5]~33 $end
$var wire 1 Q count[6]~34_combout $end
$var wire 1 R count[6]~reg0_regout $end
$var wire 1 S count[6]~35 $end
$var wire 1 T count[7]~37 $end
$var wire 1 U count[8]~38_combout $end
$var wire 1 V count[8]~reg0_regout $end
$var wire 1 W count[8]~39 $end
$var wire 1 X count[9]~41 $end
$var wire 1 Y count[10]~42_combout $end
$var wire 1 Z count[10]~reg0_regout $end
$var wire 1 [ count[10]~43 $end
$var wire 1 \ count[11]~44_combout $end
$var wire 1 ] count[11]~reg0_regout $end
$var wire 1 ^ count[11]~45 $end
$var wire 1 _ count[12]~46_combout $end
$var wire 1 ` count[12]~reg0_regout $end
$var wire 1 a count[12]~47 $end
$var wire 1 b count[13]~48_combout $end
$var wire 1 c count[13]~reg0_regout $end
$var wire 1 d count[13]~49 $end
$var wire 1 e count[14]~50_combout $end
$var wire 1 f count[14]~reg0_regout $end
$var wire 1 g count[14]~51 $end
$var wire 1 h count[15]~52_combout $end
$var wire 1 i count[15]~reg0_regout $end
$var wire 1 j count[15]~53 $end
$var wire 1 k count[16]~55 $end
$var wire 1 l count[17]~57 $end
$var wire 1 m count[18]~59 $end
$var wire 1 n count[19]~60_combout $end
$var wire 1 o count[19]~reg0_regout $end
$var wire 1 p count[19]~61 $end
$var wire 1 q count[20]~62_combout $end
$var wire 1 r count[20]~reg0_regout $end
$var wire 1 s count[20]~63 $end
$var wire 1 t count[21]~65 $end
$var wire 1 u count[22]~66_combout $end
$var wire 1 v count[22]~reg0_regout $end
$var wire 1 w count[22]~67 $end
$var wire 1 x count[23]~69 $end
$var wire 1 y count[24]~70_combout $end
$var wire 1 z count[24]~reg0_regout $end
$var wire 1 { count[17]~56_combout $end
$var wire 1 | count[17]~reg0_regout $end
$var wire 1 } count[18]~58_combout $end
$var wire 1 ~ count[18]~reg0_regout $end
$var wire 1 !! Equal0~5_combout $end
$var wire 1 "! count[1]~24_combout $end
$var wire 1 #! count[1]~reg0_regout $end
$var wire 1 $! Equal0~0_combout $end
$var wire 1 %! Equal0~3_combout $end
$var wire 1 &! count[9]~40_combout $end
$var wire 1 '! count[9]~reg0_regout $end
$var wire 1 (! Equal0~2_combout $end
$var wire 1 )! Equal0~4_combout $end
$var wire 1 *! Equal0~7_combout $end
$var wire 1 +! count[0]~reg0_regout $end
$var wire 1 ,! count[2]~26_combout $end
$var wire 1 -! count[2]~reg0_regout $end
$var wire 1 .! count[5]~32_combout $end
$var wire 1 /! count[5]~reg0_regout $end
$var wire 1 0! count[7]~36_combout $end
$var wire 1 1! count[7]~reg0_regout $end
$var wire 1 2! count[16]~54_combout $end
$var wire 1 3! count[16]~reg0_regout $end
$var wire 1 4! count[21]~64_combout $end
$var wire 1 5! count[21]~reg0_regout $end
$var wire 1 6! count[23]~68_combout $end
$var wire 1 7! count[23]~reg0_regout $end
$upscope $end
$upscope $end
$enddefinitions $end
#0
$dumpvars
0!
0"
0;
0:
09
08
07
06
05
04
03
02
01
00
0/
0.
0-
0,
0+
0*
0)
0(
0'
0&
0%
0$
0#
x<
0=
1>
x?
1@
1A
1B
0C
0D
0E
0F
1G
0H
1I
0J
0K
0L
0M
0N
1O
0P
0Q
0R
1S
0T
0U
0V
1W
0X
0Y
0Z
1[
0\
0]
0^
0_
0`
1a
0b
0c
0d
0e
0f
1g
0h
0i
0j
1k
0l
1m
0n
0o
0p
0q
0r
1s
0t
0u
0v
1w
0x
0y
0z
0{
0|
0}
0~
0!!
0"!
0#!
1$!
0%!
0&!
0'!
0(!
0)!
0*!
0+!
0,!
0-!
0.!
0/!
00!
01!
02!
03!
04!
05!
06!
07!
$end
#50
1!
1E
1F
0<
1+!
0$!
1"!
0G
1;
#100
0!
0E
0F
1<
#150
1!
1E
1F
0<
0+!
1#!
1G
0;
1:
#200
0!
0E
0F
1<
#250
1!
1E
1F
0<
1+!
1H
0"!
0G
1;
1,!
#300
0!
0E
0F
1<
#350
1!
1E
1F
0<
1-!
0+!
0#!
0I
0,!
0H
1G
19
0;
0:
1J
1I
1,!
0J
#400
0!
0E
0F
1<
#450
1!
1E
1F
0<
1+!
1"!
0G
1;
#500
0!
0E
0F
1<
#550
1!
1E
1F
0<
0+!
1#!
1G
0;
1:
#600
0!
0E
0F
1<
#650
1!
1E
1F
0<
1+!
1H
0"!
0G
1;
0I
0,!
1J
#700
0!
0E
0F
1<
#750
1!
1E
1F
0<
0-!
0+!
0#!
1K
1I
1,!
0H
1G
1L
0J
09
0;
0:
18
0L
1J
0,!
1M
0M
#800
0!
0E
0F
1<
#850
1!
1E
1F
0<
1+!
1"!
0G
1;
#900
0!
0E
0F
1<
#950
1!
1E
1F
0<
0+!
1#!
1G
0;
1:
#1000
0!
0E
0F
1<
#1050
1!
1E
1F
0<
1+!
1H
0"!
0G
1;
1,!
#1100
0!
0E
0F
1<
#1150
1!
1E
1F
0<
1-!
0+!
0#!
0I
0,!
0H
1G
19
0;
0:
1L
0J
1I
1,!
1M
0L
1J
0M
#1200
0!
0E
0F
1<
#1250
1!
1E
1F
0<
1+!
1"!
0G
1;
#1300
0!
0E
0F
1<
#1350
1!
1E
1F
0<
0+!
1#!
1G
0;
1:
#1400
0!
0E
0F
1<
#1450
1!
1E
1F
0<
1+!
1H
0"!
0G
1;
0I
0,!
1L
0J
1M
#1500
0!
0E
0F
1<
#1550
1!
1E
1F
0<
0-!
0+!
0#!
1N
0K
1$!
1I
1,!
0H
1G
0O
0M
0L
1J
09
0;
0:
17
08
0J
0,!
1.!
1O
1M
0.!
#1600
0!
0E
0F
1<
#1650
1!
1E
1F
0<
1+!
0$!
1"!
0G
1;
#1700
0!
0E
0F
1<
#1750
1!
1E
1F
0<
0+!
1#!
1G
0;
1:
#1800
0!
0E
0F
1<
#1850
1!
1E
1F
0<
1+!
1H
0"!
0G
1;
1,!
#1900
0!
0E
0F
1<
#1950
1!
1E
1F
0<
1-!
0+!
0#!
0I
0,!
0H
1G
19
0;
0:
1J
1I
1,!
0J
#2000
0!
0E
0F
1<
#2050
1!
1E
1F
0<
1+!
1"!
0G
1;
#2100
0!
0E
0F
1<
#2150
1!
1E
1F
0<
0+!
1#!
1G
0;
1:
#2200
0!
0E
0F
1<
#2250
1!
1E
1F
0<
1+!
1H
0"!
0G
1;
0I
0,!
1J
#2300
0!
0E
0F
1<
#2350
1!
1E
1F
0<
0-!
0+!
0#!
1K
1I
1,!
0H
1G
1L
0J
09
0;
0:
18
0L
1J
0,!
0O
0M
1O
1M
1.!
0.!
#2400
0!
0E
0F
1<
#2450
1!
1E
1F
0<
1+!
1"!
0G
1;
#2500
0!
0E
0F
1<
#2550
1!
1E
1F
0<
0+!
1#!
1G
0;
1:
#2600
0!
0E
0F
1<
#2650
1!
1E
1F
0<
1+!
1H
0"!
0G
1;
1,!
#2700
0!
0E
0F
1<
#2750
1!
1E
1F
0<
1-!
0+!
0#!
0I
0,!
0H
1G
19
0;
0:
1L
0J
1I
1,!
0O
0M
0L
1J
1.!
1O
1M
0.!
#2800
0!
0E
0F
1<
#2850
1!
1E
1F
0<
1+!
1"!
0G
1;
#2900
0!
0E
0F
1<
#2950
1!
1E
1F
0<
0+!
1#!
1G
0;
1:
#3000
0!
0E
0F
1<
#3050
1!
1E
1F
0<
1+!
1H
0"!
0G
1;
0I
0,!
1L
0J
0O
0M
1.!
#3100
0!
0E
0F
1<
#3150
1!
1E
1F
0<
1/!
0-!
0+!
0#!
0N
0K
1P
0.!
1$!
1I
1,!
0H
1G
1O
1M
0L
1J
16
09
0;
0:
07
08
1Q
0J
0,!
0P
1.!
0M
0Q
#3200
0!
0E
0F
1<
#3250
1!
1E
1F
0<
1+!
0$!
1"!
0G
1;
#3300
0!
0E
0F
1<
#3350
1!
1E
1F
0<
0+!
1#!
1G
0;
1:
#3400
0!
0E
0F
1<
#3450
1!
1E
1F
0<
1+!
1H
0"!
0G
1;
1,!
#3500
0!
0E
0F
1<
#3550
1!
1E
1F
0<
1-!
0+!
0#!
0I
0,!
0H
1G
19
0;
0:
1J
1I
1,!
0J
#3600
0!
0E
0F
1<
#3650
1!
1E
1F
0<
1+!
1"!
0G
1;
#3700
0!
0E
0F
1<
#3750
1!
1E
1F
0<
0+!
1#!
1G
0;
1:
#3800
0!
0E
0F
1<
#3850
1!
1E
1F
0<
1+!
1H
0"!
0G
1;
0I
0,!
1J
#3900
0!
0E
0F
1<
#3950
1!
1E
1F
0<
0-!
0+!
0#!
1K
1I
1,!
0H
1G
1L
0J
09
0;
0:
18
0L
1J
0,!
1M
0M
#4000
0!
0E
0F
1<
#4050
1!
1E
1F
0<
1+!
1"!
0G
1;
#4100
0!
0E
0F
1<
#4150
1!
1E
1F
0<
0+!
1#!
1G
0;
1:
#4200
0!
0E
0F
1<
#4250
1!
1E
1F
0<
1+!
1H
0"!
0G
1;
1,!
#4300
0!
0E
0F
1<
#4350
1!
1E
1F
0<
1-!
0+!
0#!
0I
0,!
0H
1G
19
0;
0:
1L
0J
1I
1,!
1M
0L
1J
0M
#4400
0!
0E
0F
1<
#4450
1!
1E
1F
0<
1+!
1"!
0G
1;
#4500
0!
0E
0F
1<
#4550
1!
1E
1F
0<
0+!
1#!
1G
0;
1:
#4600
0!
0E
0F
1<
#4650
1!
1E
1F
0<
1+!
1H
0"!
0G
1;
0I
0,!
1L
0J
1M
#4700
0!
0E
0F
1<
#4750
1!
1E
1F
0<
0-!
0+!
0#!
1N
0K
1$!
1I
1,!
0H
1G
0O
0M
0L
1J
09
0;
0:
17
08
0J
0,!
1P
0.!
1O
1M
1Q
0P
1.!
0Q
#4800
0!
0E
0F
1<
#4850
1!
1E
1F
0<
1+!
0$!
1"!
0G
1;
#4900
0!
0E
0F
1<
#4950
1!
1E
1F
0<
0+!
1#!
1G
0;
1:
#5000
0!
0E
0F
1<
#5050
1!
1E
1F
0<
1+!
1H
0"!
0G
1;
1,!
#5100
0!
0E
0F
1<
#5150
1!
1E
1F
0<
1-!
0+!
0#!
0I
0,!
0H
1G
19
0;
0:
1J
1I
1,!
0J
#5200
0!
0E
0F
1<
#5250
1!
1E
1F
0<
1+!
1"!
0G
1;
#5300
0!
0E
0F
1<
#5350
1!
1E
1F
0<
0+!
1#!
1G
0;
1:
#5400
0!
0E
0F
1<
#5450
1!
1E
1F
0<
1+!
1H
0"!
0G
1;
0I
0,!
1J
#5500
0!
0E
0F
1<
#5550
1!
1E
1F
0<
0-!
0+!
0#!
1K
1I
1,!
0H
1G
1L
0J
09
0;
0:
18
0L
1J
0,!
0O
0M
1O
1M
1P
0.!
0P
1.!
1Q
0Q
#5600
0!
0E
0F
1<
#5650
1!
1E
1F
0<
1+!
1"!
0G
1;
#5700
0!
0E
0F
1<
#5750
1!
1E
1F
0<
0+!
1#!
1G
0;
1:
#5800
0!
0E
0F
1<
#5850
1!
1E
1F
0<
1+!
1H
0"!
0G
1;
1,!
#5900
0!
0E
0F
1<
#5950
1!
1E
1F
0<
1-!
0+!
0#!
0I
0,!
0H
1G
19
0;
0:
1L
0J
1I
1,!
0O
0M
0L
1J
1P
0.!
1O
1M
1Q
0P
1.!
0Q
#6000
0!
0E
0F
1<
#6050
1!
1E
1F
0<
1+!
1"!
0G
1;
#6100
0!
0E
0F
1<
#6150
1!
1E
1F
0<
0+!
1#!
1G
0;
1:
#6200
0!
0E
0F
1<
#6250
1!
1E
1F
0<
1+!
1H
0"!
0G
1;
0I
0,!
1L
0J
0O
0M
1P
0.!
1Q
#6300
0!
0E
0F
1<
#6350
1!
1E
1F
0<
0/!
0-!
0+!
0#!
1R
0N
0K
0P
1.!
1C
1$!
1I
1,!
0H
1G
0S
0Q
1O
1M
0L
1J
06
09
0;
0:
15
07
08
1S
1Q
0J
0,!
10!
0.!
0M
00!
#6400
0!
0E
0F
1<
#6450
1!
1E
1F
0<
1+!
0$!
1"!
0G
1;
#6500
0!
0E
0F
1<
#6550
1!
1E
1F
0<
0+!
1#!
1G
0;
1:
#6600
0!
0E
0F
1<
#6650
1!
1E
1F
0<
1+!
1H
0"!
0G
1;
1,!
#6700
0!
0E
0F
1<
#6750
1!
1E
1F
0<
1-!
0+!
0#!
0I
0,!
0H
1G
19
0;
0:
1J
1I
1,!
0J
#6800
0!
0E
0F
1<
#6850
1!
1E
1F
0<
1+!
1"!
0G
1;
#6900
0!
0E
0F
1<
#6950
1!
1E
1F
0<
0+!
1#!
1G
0;
1:
#7000
0!
0E
0F
1<
#7050
1!
1E
1F
0<
1+!
1H
0"!
0G
1;
0I
0,!
1J
#7100
0!
0E
0F
1<
#7150
1!
1E
1F
0<
0-!
0+!
0#!
1K
1I
1,!
0H
1G
1L
0J
09
0;
0:
18
0L
1J
0,!
1M
0M
#7200
0!
0E
0F
1<
#7250
1!
1E
1F
0<
1+!
1"!
0G
1;
#7300
0!
0E
0F
1<
#7350
1!
1E
1F
0<
0+!
1#!
1G
0;
1:
#7400
0!
0E
0F
1<
#7450
1!
1E
1F
0<
1+!
1H
0"!
0G
1;
1,!
#7500
0!
0E
0F
1<
#7550
1!
1E
1F
0<
1-!
0+!
0#!
0I
0,!
0H
1G
19
0;
0:
1L
0J
1I
1,!
1M
0L
1J
0M
#7600
0!
0E
0F
1<
#7650
1!
1E
1F
0<
1+!
1"!
0G
1;
#7700
0!
0E
0F
1<
#7750
1!
1E
1F
0<
0+!
1#!
1G
0;
1:
#7800
0!
0E
0F
1<
#7850
1!
1E
1F
0<
1+!
1H
0"!
0G
1;
0I
0,!
1L
0J
1M
#7900
0!
0E
0F
1<
#7950
1!
1E
1F
0<
0-!
0+!
0#!
1N
0K
1$!
1I
1,!
0H
1G
0O
0M
0C
0L
1J
09
0;
0:
17
08
0J
0,!
1.!
1O
1M
0.!
#8000
0!
0E
0F
1<
#8050
1!
1E
1F
0<
1+!
0$!
1"!
0G
1;
#8100
0!
0E
0F
1<
#8150
1!
1E
1F
0<
0+!
1#!
1G
0;
1:
#8200
0!
0E
0F
1<
#8250
1!
1E
1F
0<
1+!
1H
0"!
0G
1;
1,!
#8300
0!
0E
0F
1<
#8350
1!
1E
1F
0<
1-!
0+!
0#!
0I
0,!
0H
1G
19
0;
0:
1J
1I
1,!
0J
#8400
0!
0E
0F
1<
#8450
1!
1E
1F
0<
1+!
1"!
0G
1;
#8500
0!
0E
0F
1<
#8550
1!
1E
1F
0<
0+!
1#!
1G
0;
1:
#8600
0!
0E
0F
1<
#8650
1!
1E
1F
0<
1+!
1H
0"!
0G
1;
0I
0,!
1J
#8700
0!
0E
0F
1<
#8750
1!
1E
1F
0<
0-!
0+!
0#!
1K
1I
1,!
0H
1G
1L
0J
09
0;
0:
18
0L
1J
0,!
0O
0M
1O
1M
1.!
0.!
#8800
0!
0E
0F
1<
#8850
1!
1E
1F
0<
1+!
1"!
0G
1;
#8900
0!
0E
0F
1<
#8950
1!
1E
1F
0<
0+!
1#!
1G
0;
1:
#9000
0!
0E
0F
1<
#9050
1!
1E
1F
0<
1+!
1H
0"!
0G
1;
1,!
#9100
0!
0E
0F
1<
#9150
1!
1E
1F
0<
1-!
0+!
0#!
0I
0,!
0H
1G
19
0;
0:
1L
0J
1I
1,!
0O
0M
0L
1J
1.!
1O
1M
0.!
#9200
0!
0E
0F
1<
#9250
1!
1E
1F
0<
1+!
1"!
0G
1;
#9300
0!
0E
0F
1<
#9350
1!
1E
1F
0<
0+!
1#!
1G
0;
1:
#9400
0!
0E
0F
1<
#9450
1!
1E
1F
0<
1+!
1H
0"!
0G
1;
0I
0,!
1L
0J
0O
0M
1.!
#9500
0!
0E
0F
1<
#9550
1!
1E
1F
0<
1/!
0-!
0+!
0#!
0N
0K
1P
0.!
1$!
1I
1,!
0H
1G
1O
1M
0L
1J
16
09
0;
0:
07
08
0S
0Q
0J
0,!
0P
1.!
0M
10!
1S
1Q
00!
#9600
0!
0E
0F
1<
#9650
1!
1E
1F
0<
1+!
0$!
1"!
0G
1;
#9700
0!
0E
0F
1<
#9750
1!
1E
1F
0<
0+!
1#!
1G
0;
1:
#9800
0!
0E
0F
1<
#9850
1!
1E
1F
0<
1+!
1H
0"!
0G
1;
1,!
#9900
0!
0E
0F
1<
#9950
1!
1E
1F
0<
1-!
0+!
0#!
0I
0,!
0H
1G
19
0;
0:
1J
1I
1,!
0J
#10000
0!
0E
0F
1<
#10050
1!
1E
1F
0<
1+!
1"!
0G
1;
#10100
0!
0E
0F
1<
#10150
1!
1E
1F
0<
0+!
1#!
1G
0;
1:
#10200
0!
0E
0F
1<
#10250
1!
1E
1F
0<
1+!
1H
0"!
0G
1;
0I
0,!
1J
#10300
0!
0E
0F
1<
#10350
1!
1E
1F
0<
0-!
0+!
0#!
1K
1I
1,!
0H
1G
1L
0J
09
0;
0:
18
0L
1J
0,!
1M
0M
#10400
0!
0E
0F
1<
#10450
1!
1E
1F
0<
1+!
1"!
0G
1;
#10500
0!
0E
0F
1<
#10550
1!
1E
1F
0<
0+!
1#!
1G
0;
1:
#10600
0!
0E
0F
1<
#10650
1!
1E
1F
0<
1+!
1H
0"!
0G
1;
1,!
#10700
0!
0E
0F
1<
#10750
1!
1E
1F
0<
1-!
0+!
0#!
0I
0,!
0H
1G
19
0;
0:
1L
0J
1I
1,!
1M
0L
1J
0M
#10800
0!
0E
0F
1<
#10850
1!
1E
1F
0<
1+!
1"!
0G
1;
#10900
0!
0E
0F
1<
#10950
1!
1E
1F
0<
0+!
1#!
1G
0;
1:
#11000
0!
0E
0F
1<
#11050
1!
1E
1F
0<
1+!
1H
0"!
0G
1;
0I
0,!
1L
0J
1M
#11100
0!
0E
0F
1<
#11150
1!
1E
1F
0<
0-!
0+!
0#!
1N
0K
1$!
1I
1,!
0H
1G
0O
0M
0L
1J
09
0;
0:
17
08
0J
0,!
1P
0.!
1O
1M
0S
0Q
0P
1.!
10!
1S
1Q
00!
#11200
0!
0E
0F
1<
#11250
1!
1E
1F
0<
1+!
0$!
1"!
0G
1;
#11300
0!
0E
0F
1<
#11350
1!
1E
1F
0<
0+!
1#!
1G
0;
1:
#11400
0!
0E
0F
1<
#11450
1!
1E
1F
0<
1+!
1H
0"!
0G
1;
1,!
#11500
0!
0E
0F
1<
#11550
1!
1E
1F
0<
1-!
0+!
0#!
0I
0,!
0H
1G
19
0;
0:
1J
1I
1,!
0J
#11600
0!
0E
0F
1<
#11650
1!
1E
1F
0<
1+!
1"!
0G
1;
#11700
0!
0E
0F
1<
#11750
1!
1E
1F
0<
0+!
1#!
1G
0;
1:
#11800
0!
0E
0F
1<
#11850
1!
1E
1F
0<
1+!
1H
0"!
0G
1;
0I
0,!
1J
#11900
0!
0E
0F
1<
#11950
1!
1E
1F
0<
0-!
0+!
0#!
1K
1I
1,!
0H
1G
1L
0J
09
0;
0:
18
0L
1J
0,!
0O
0M
1O
1M
1P
0.!
0P
1.!
0S
0Q
1S
1Q
10!
00!
#12000
0!
0E
0F
1<
#12050
1!
1E
1F
0<
1+!
1"!
0G
1;
#12100
0!
0E
0F
1<
#12150
1!
1E
1F
0<
0+!
1#!
1G
0;
1:
#12200
0!
0E
0F
1<
#12250
1!
1E
1F
0<
1+!
1H
0"!
0G
1;
1,!
#12300
0!
0E
0F
1<
#12350
1!
1E
1F
0<
1-!
0+!
0#!
0I
0,!
0H
1G
19
0;
0:
1L
0J
1I
1,!
0O
0M
0L
1J
1P
0.!
1O
1M
0S
0Q
0P
1.!
10!
1S
1Q
00!
#12400
0!
0E
0F
1<
#12450
1!
1E
1F
0<
1+!
1"!
0G
1;
#12500
0!
0E
0F
1<
#12550
1!
1E
1F
0<
0+!
1#!
1G
0;
1:
#12600
0!
0E
0F
1<
#12650
1!
1E
1F
0<
1+!
1H
0"!
0G
1;
0I
0,!
1L
0J
0O
0M
1P
0.!
0S
0Q
10!
#12700
0!
0E
0F
1<
#12750
1!
1E
1F
0<
11!
0/!
0-!
0+!
0#!
0R
0N
0K
1T
00!
0P
1.!
1$!
1I
1,!
0H
1G
1S
1Q
1O
1M
0L
1J
14
06
09
0;
0:
05
07
08
1U
0Q
0J
0,!
0T
10!
0.!
0M
0U
#12800
0!
0E
0F
1<
#12850
1!
1E
1F
0<
1+!
0$!
1"!
0G
1;
#12900
0!
0E
0F
1<
#12950
1!
1E
1F
0<
0+!
1#!
1G
0;
1:
#13000
0!
0E
0F
1<
#13050
1!
1E
1F
0<
1+!
1H
0"!
0G
1;
1,!
#13100
0!
0E
0F
1<
#13150
1!
1E
1F
0<
1-!
0+!
0#!
0I
0,!
0H
1G
19
0;
0:
1J
1I
1,!
0J
#13200
0!
0E
0F
1<
#13250
1!
1E
1F
0<
1+!
1"!
0G
1;
#13300
0!
0E
0F
1<
#13350
1!
1E
1F
0<
0+!
1#!
1G
0;
1:
#13400
0!
0E
0F
1<
#13450
1!
1E
1F
0<
1+!
1H
0"!
0G
1;
0I
0,!
1J
#13500
0!
0E
0F
1<
#13550
1!
1E
1F
0<
0-!
0+!
0#!
1K
1I
1,!
0H
1G
1L
0J
09
0;
0:
18
0L
1J
0,!
1M
0M
#13600
0!
0E
0F
1<
#13650
1!
1E
1F
0<
1+!
1"!
0G
1;
#13700
0!
0E
0F
1<
#13750
1!
1E
1F
0<
0+!
1#!
1G
0;
1:
#13800
0!
0E
0F
1<
#13850
1!
1E
1F
0<
1+!
1H
0"!
0G
1;
1,!
#13900
0!
0E
0F
1<
#13950
1!
1E
1F
0<
1-!
0+!
0#!
0I
0,!
0H
1G
19
0;
0:
1L
0J
1I
1,!
1M
0L
1J
0M
#14000
0!
0E
0F
1<
#14050
1!
1E
1F
0<
1+!
1"!
0G
1;
#14100
0!
0E
0F
1<
#14150
1!
1E
1F
0<
0+!
1#!
1G
0;
1:
#14200
0!
0E
0F
1<
#14250
1!
1E
1F
0<
1+!
1H
0"!
0G
1;
0I
0,!
1L
0J
1M
#14300
0!
0E
0F
1<
#14350
1!
1E
1F
0<
0-!
0+!
0#!
1N
0K
1$!
1I
1,!
0H
1G
0O
0M
0L
1J
09
0;
0:
17
08
0J
0,!
1.!
1O
1M
0.!
#14400
0!
0E
0F
1<
#14450
1!
1E
1F
0<
1+!
0$!
1"!
0G
1;
#14500
0!
0E
0F
1<
#14550
1!
1E
1F
0<
0+!
1#!
1G
0;
1:
#14600
0!
0E
0F
1<
#14650
1!
1E
1F
0<
1+!
1H
0"!
0G
1;
1,!
#14700
0!
0E
0F
1<
#14750
1!
1E
1F
0<
1-!
0+!
0#!
0I
0,!
0H
1G
19
0;
0:
1J
1I
1,!
0J
#14800
0!
0E
0F
1<
#14850
1!
1E
1F
0<
1+!
1"!
0G
1;
#14900
0!
0E
0F
1<
#14950
1!
1E
1F
0<
0+!
1#!
1G
0;
1:
#15000
0!
0E
0F
1<
#15050
1!
1E
1F
0<
1+!
1H
0"!
0G
1;
0I
0,!
1J
#15100
0!
0E
0F
1<
#15150
1!
1E
1F
0<
0-!
0+!
0#!
1K
1I
1,!
0H
1G
1L
0J
09
0;
0:
18
0L
1J
0,!
0O
0M
1O
1M
1.!
0.!
#15200
0!
0E
0F
1<
#15250
1!
1E
1F
0<
1+!
1"!
0G
1;
#15300
0!
0E
0F
1<
#15350
1!
1E
1F
0<
0+!
1#!
1G
0;
1:
#15400
0!
0E
0F
1<
#15450
1!
1E
1F
0<
1+!
1H
0"!
0G
1;
1,!
#15500
0!
0E
0F
1<
#15550
1!
1E
1F
0<
1-!
0+!
0#!
0I
0,!
0H
1G
19
0;
0:
1L
0J
1I
1,!
0O
0M
0L
1J
1.!
1O
1M
0.!
#15600
0!
0E
0F
1<
#15650
1!
1E
1F
0<
1+!
1"!
0G
1;
#15700
0!
0E
0F
1<
#15750
1!
1E
1F
0<
0+!
1#!
1G
0;
1:
#15800
0!
0E
0F
1<
#15850
1!
1E
1F
0<
1+!
1H
0"!
0G
1;
0I
0,!
1L
0J
0O
0M
1.!
#15900
0!
0E
0F
1<
#15950
1!
1E
1F
0<
1/!
0-!
0+!
0#!
0N
0K
1P
0.!
1$!
1I
1,!
0H
1G
1O
1M
0L
1J
16
09
0;
0:
07
08
1Q
0J
0,!
0P
1.!
0M
0Q
#16000
0!
0E
0F
1<
#16050
1!
1E
1F
0<
1+!
0$!
1"!
0G
1;
#16100
0!
0E
0F
1<
#16150
1!
1E
1F
0<
0+!
1#!
1G
0;
1:
#16200
0!
0E
0F
1<
#16250
1!
1E
1F
0<
1+!
1H
0"!
0G
1;
1,!
#16300
0!
0E
0F
1<
#16350
1!
1E
1F
0<
1-!
0+!
0#!
0I
0,!
0H
1G
19
0;
0:
1J
1I
1,!
0J
#16400
0!
0E
0F
1<
#16450
1!
1E
1F
0<
1+!
1"!
0G
1;
#16500
0!
0E
0F
1<
#16550
1!
1E
1F
0<
0+!
1#!
1G
0;
1:
#16600
0!
0E
0F
1<
#16650
1!
1E
1F
0<
1+!
1H
0"!
0G
1;
0I
0,!
1J
#16700
0!
0E
0F
1<
#16750
1!
1E
1F
0<
0-!
0+!
0#!
1K
1I
1,!
0H
1G
1L
0J
09
0;
0:
18
0L
1J
0,!
1M
0M
#16800
0!
0E
0F
1<
#16850
1!
1E
1F
0<
1+!
1"!
0G
1;
#16900
0!
0E
0F
1<
#16950
1!
1E
1F
0<
0+!
1#!
1G
0;
1:
#17000
0!
0E
0F
1<
#17050
1!
1E
1F
0<
1+!
1H
0"!
0G
1;
1,!
#17100
0!
0E
0F
1<
#17150
1!
1E
1F
0<
1-!
0+!
0#!
0I
0,!
0H
1G
19
0;
0:
1L
0J
1I
1,!
1M
0L
1J
0M
#17200
0!
0E
0F
1<
#17250
1!
1E
1F
0<
1+!
1"!
0G
1;
#17300
0!
0E
0F
1<
#17350
1!
1E
1F
0<
0+!
1#!
1G
0;
1:
#17400
0!
0E
0F
1<
#17450
1!
1E
1F
0<
1+!
1H
0"!
0G
1;
0I
0,!
1L
0J
1M
#17500
0!
0E
0F
1<
#17550
1!
1E
1F
0<
0-!
0+!
0#!
1N
0K
1$!
1I
1,!
0H
1G
0O
0M
0L
1J
09
0;
0:
17
08
0J
0,!
1P
0.!
1O
1M
1Q
0P
1.!
0Q
#17600
0!
0E
0F
1<
#17650
1!
1E
1F
0<
1+!
0$!
1"!
0G
1;
#17700
0!
0E
0F
1<
#17750
1!
1E
1F
0<
0+!
1#!
1G
0;
1:
#17800
0!
0E
0F
1<
#17850
1!
1E
1F
0<
1+!
1H
0"!
0G
1;
1,!
#17900
0!
0E
0F
1<
#17950
1!
1E
1F
0<
1-!
0+!
0#!
0I
0,!
0H
1G
19
0;
0:
1J
1I
1,!
0J
#18000
0!
0E
0F
1<
#18050
1!
1E
1F
0<
1+!
1"!
0G
1;
#18100
0!
0E
0F
1<
#18150
1!
1E
1F
0<
0+!
1#!
1G
0;
1:
#18200
0!
0E
0F
1<
#18250
1!
1E
1F
0<
1+!
1H
0"!
0G
1;
0I
0,!
1J
#18300
0!
0E
0F
1<
#18350
1!
1E
1F
0<
0-!
0+!
0#!
1K
1I
1,!
0H
1G
1L
0J
09
0;
0:
18
0L
1J
0,!
0O
0M
1O
1M
1P
0.!
0P
1.!
1Q
0Q
#18400
0!
0E
0F
1<
#18450
1!
1E
1F
0<
1+!
1"!
0G
1;
#18500
0!
0E
0F
1<
#18550
1!
1E
1F
0<
0+!
1#!
1G
0;
1:
#18600
0!
0E
0F
1<
#18650
1!
1E
1F
0<
1+!
1H
0"!
0G
1;
1,!
#18700
0!
0E
0F
1<
#18750
1!
1E
1F
0<
1-!
0+!
0#!
0I
0,!
0H
1G
19
0;
0:
1L
0J
1I
1,!
0O
0M
0L
1J
1P
0.!
1O
1M
1Q
0P
1.!
0Q
#18800
0!
0E
0F
1<
#18850
1!
1E
1F
0<
1+!
1"!
0G
1;
#18900
0!
0E
0F
1<
#18950
1!
1E
1F
0<
0+!
1#!
1G
0;
1:
#19000
0!
0E
0F
1<
