relogio/simulation/qsim/relogio.msim.vcd
$comment
	File created using the following command:
		vcd file relogio.msim.vcd -direction
$end
$date
	Fri Jun 01 20:14:57 2018
$end
$version
	ModelSim Version 10.1d
$end
$timescale
	1ps
$end
$scope module relogio_vlg_vec_tst $end
$var reg 1 ! clock $end
$var wire 1 " saida_rel [6] $end
$var wire 1 # saida_rel [5] $end
$var wire 1 $ saida_rel [4] $end
$var wire 1 % saida_rel [3] $end
$var wire 1 & saida_rel [2] $end
$var wire 1 ' saida_rel [1] $end
$var wire 1 ( saida_rel [0] $end
$var wire 1 ) sampler $end
$scope module i1 $end
$var wire 1 * gnd $end
$var wire 1 + vcc $end
$var wire 1 , unknown $end
$var tri1 1 - devclrn $end
$var tri1 1 . devpor $end
$var tri1 1 / devoe $end
$var wire 1 0 clock~input_o $end
$var wire 1 1 saida_rel[0]~output_o $end
$var wire 1 2 saida_rel[1]~output_o $end
$var wire 1 3 saida_rel[2]~output_o $end
$var wire 1 4 saida_rel[3]~output_o $end
$var wire 1 5 saida_rel[4]~output_o $end
$var wire 1 6 saida_rel[5]~output_o $end
$var wire 1 7 saida_rel[6]~output_o $end
$var wire 1 8 CONT|FF1|qsignal~0_combout $end
$var wire 1 9 CONT|FF2|qsignal~0_combout $end
$var wire 1 : CONT|FF2|qsignal~feeder_combout $end
$var wire 1 ; CONT|FF2|qsignal~q $end
$var wire 1 < CONT|FF3|qsignal~0_combout $end
$var wire 1 = CONT|FF3|qsignal~q $end
$var wire 1 > CONT|seg_uni_clear~0_combout $end
$var wire 1 ? CONT|FF1|qsignal~q $end
$var wire 1 @ CONT|FF0|qsignal~0_combout $end
$var wire 1 A CONT|FF0|qsignal~q $end
$var wire 1 B CONT|CC7|Mux6~0_combout $end
$var wire 1 C CONT|CC7|Mux5~0_combout $end
$var wire 1 D CONT|CC7|Mux4~0_combout $end
$var wire 1 E CONT|CC7|Mux3~0_combout $end
$var wire 1 F CONT|CC7|Mux2~0_combout $end
$var wire 1 G CONT|CC7|Mux1~0_combout $end
$var wire 1 H CONT|CC7|Mux0~0_combout $end
$upscope $end
$upscope $end
$enddefinitions $end
#0
$dumpvars
0!
1(
0'
0&
0%
0$
0#
0"
x)
0*
1+
x,
1-
1.
1/
00
11
02
03
04
05
06
07
18
19
1:
0;
1<
0=
0>
0?
1@
0A
0B
0C
0D
0E
0F
0G
0H
$end
#5000
1!
10
0)
#10000
0!
00
1)
1A
0@
1H
1E
1D
1C
17
14
13
12
1"
1%
1&
1'
#15000
1!
10
0)
#20000
0!
00
1)
0A
1@
0H
0E
0D
0C
07
04
03
02
0"
0%
0&
0'
1?
1B
08
1F
1C
01
15
12
0(
1$
1'
#25000
1!
10
0)
#30000
0!
00
1)
1A
0@
0F
1D
05
13
0$
1&
#35000
1!
10
0)
#40000
0!
00
1)
0A
1@
1F
0D
15
03
1$
0&
0?
0B
18
0F
0C
11
05
02
1(
0$
0'
1;
1B
09
1H
1E
1D
0:
01
17
14
13
0(
1"
1%
1&
#45000
1!
10
0)
#50000
0!
00
1)
1A
0@
0H
1G
0E
07
16
04
0"
1#
0%
#55000
1!
10
0)
#60000
0!
00
1)
0A
1@
1H
0G
1E
17
06
14
1"
0#
1%
1?
08
0H
1G
0E
0D
07
16
04
03
0"
1#
0%
0&
#65000
1!
10
0)
#70000
0!
00
1)
1A
0B
0@
0G
1E
1D
1C
11
06
14
13
12
1(
0#
1%
1&
1'
#75000
1!
10
0)
#80000
0!
00
1)
0A
1B
1@
1G
0E
0D
0C
01
16
04
03
02
0(
1#
0%
0&
0'
0?
18
1H
0G
1E
1D
17
06
14
13
1"
0#
1%
1&
0;
0B
19
0H
0E
0D
1:
11
07
04
03
1(
0"
0%
0&
1=
1B
0<
01
0(
#85000
1!
10
0)
#90000
0!
00
1)
1A
0@
1D
13
1&
#95000
1!
10
0)
#100000
0!
00
1)
0A
1@
0D
03
0&
1?
0B
1>
08
11
1(
0=
0?
0>
1<
18
#105000
1!
10
0)
#110000
0!
00
1)
1A
0@
1H
1E
1D
1C
17
14
13
12
1"
1%
1&
1'
#115000
1!
10
0)
#120000
0!
00
1)
0A
1@
0H
0E
0D
0C
07
04
03
02
0"
0%
0&
0'
1?
1B
08
1F
1C
01
15
12
0(
1$
1'
#125000
1!
10
0)
#130000
0!
00
1)
1A
0@
0F
1D
05
13
0$
1&
#135000
1!
10
0)
#140000
0!
00
1)
0A
1@
1F
0D
15
03
1$
0&
0?
0B
18
0F
0C
11
05
02
1(
0$
0'
1;
1B
09
1H
1E
1D
0:
01
17
14
13
0(
1"
1%
1&
#145000
1!
10
0)
#150000
0!
00
1)
1A
0@
0H
1G
0E
07
16
04
0"
1#
0%
#155000
1!
10
0)
#160000
0!
00
1)
0A
1@
1H
0G
1E
17
06
14
1"
0#
1%
1?
08
0H
1G
0E
0D
07
16
04
03
0"
1#
0%
0&
#165000
1!
10
0)
#170000
0!
00
1)
1A
0B
0@
0G
1E
1D
1C
11
06
14
13
12
1(
0#
1%
1&
1'
#175000
1!
10
0)
#180000
0!
00
1)
0A
1B
1@
1G
0E
0D
0C
01
16
04
03
02
0(
1#
0%
0&
0'
0?
18
1H
0G
1E
1D
17
06
14
13
1"
0#
1%
1&
0;
0B
19
0H
0E
0D
1:
11
07
04
03
1(
0"
0%
0&
1=
1B
0<
01
0(
#185000
1!
10
0)
#190000
0!
00
1)
1A
0@
1D
13
1&
#195000
1!
10
0)
#200000
0!
00
1)
0A
1@
0D
03
0&
1?
0B
1>
08
11
1(
0=
0?
0>
1<
18
#205000
1!
10
0)
#210000
0!
00
1)
1A
0@
1H
1E
1D
1C
17
14
13
12
1"
1%
1&
1'
#215000
1!
10
0)
#220000
0!
00
1)
0A
1@
0H
0E
0D
0C
07
04
03
02
0"
0%
0&
0'
1?
1B
08
1F
1C
01
15
12
0(
1$
1'
#225000
1!
10
0)
#230000
0!
00
1)
1A
0@
0F
1D
05
13
0$
1&
#235000
1!
10
0)
#240000
0!
00
1)
0A
1@
1F
0D
15
03
1$
0&
0?
0B
18
0F
0C
11
05
02
1(
0$
0'
1;
1B
09
1H
1E
1D
0:
01
17
14
13
0(
1"
1%
1&
#245000
1!
10
0)
#250000
0!
00
1)
1A
0@
0H
1G
0E
07
16
04
0"
1#
0%
#255000
1!
10
0)
#260000
0!
00
1)
0A
1@
1H
0G
1E
17
06
14
1"
0#
1%
1?
08
0H
1G
0E
0D
07
16
04
03
0"
1#
0%
0&
#265000
1!
10
0)
#270000
0!
00
1)
1A
0B
0@
0G
1E
1D
1C
11
06
14
13
12
1(
0#
1%
1&
1'
#275000
1!
10
0)
#280000
0!
00
1)
0A
1B
1@
1G
0E
0D
0C
01
16
04
03
02
0(
1#
0%
0&
0'
0?
18
1H
0G
1E
1D
17
06
14
13
1"
0#
1%
1&
0;
0B
19
0H
0E
0D
1:
11
07
04
03
1(
0"
0%
0&
1=
1B
0<
01
0(
#285000
1!
10
0)
#290000
0!
00
1)
1A
0@
1D
13
1&
#295000
1!
10
0)
#300000
0!
00
1)
0A
1@
0D
03
0&
1?
0B
1>
08
11
1(
0=
0?
0>
1<
18
#305000
1!
10
0)
#310000
0!
00
1)
1A
0@
1H
1E
1D
1C
17
14
13
12
1"
1%
1&
1'
#315000
1!
10
0)
#320000
0!
00
1)
0A
1@
0H
0E
0D
0C
07
04
03
02
0"
0%
0&
0'
1?
1B
08
1F
1C
01
15
12
0(
1$
1'
#325000
1!
10
0)
#330000
0!
00
1)
1A
0@
0F
1D
05
13
0$
1&
#335000
1!
10
0)
#340000
0!
00
1)
0A
1@
1F
0D
15
03
1$
0&
0?
0B
18
0F
0C
11
05
02
1(
0$
0'
1;
1B
09
1H
1E
1D
0:
01
17
14
13
0(
1"
1%
1&
#345000
1!
10
0)
#350000
0!
00
1)
1A
0@
0H
1G
0E
07
16
04
0"
1#
0%
#355000
1!
10
0)
#360000
0!
00
1)
0A
1@
1H
0G
1E
17
06
14
1"
0#
1%
1?
08
0H
1G
0E
0D
07
16
04
03
0"
1#
0%
0&
#365000
1!
10
0)
#370000
0!
00
1)
1A
0B
0@
0G
1E
1D
1C
11
06
14
13
12
1(
0#
1%
1&
1'
#375000
1!
10
0)
#380000
0!
00
1)
0A
1B
1@
1G
0E
0D
0C
01
16
04
03
02
0(
1#
0%
0&
0'
0?
18
1H
0G
1E
1D
17
06
14
13
1"
0#
1%
1&
0;
0B
19
0H
0E
0D
1:
11
07
04
03
1(
0"
0%
0&
1=
1B
0<
01
0(
#385000
1!
10
0)
#390000
0!
00
1)
1A
0@
1D
13
1&
#395000
1!
10
0)
#400000
0!
00
1)
0A
1@
0D
03
0&
1?
0B
1>
08
11
1(
0=
0?
0>
1<
18
#405000
1!
10
0)
#410000
0!
00
1)
1A
0@
1H
1E
1D
1C
17
14
13
12
1"
1%
1&
1'
#415000
1!
10
0)
#420000
0!
00
1)
0A
1@
0H
0E
0D
0C
07
04
03
02
0"
0%
0&
0'
1?
1B
08
1F
1C
01
15
12
0(
1$
1'
#425000
1!
10
0)
#430000
0!
00
1)
1A
0@
0F
1D
05
13
0$
1&
#435000
1!
10
0)
#440000
0!
00
1)
0A
1@
1F
0D
15
03
1$
0&
0?
0B
18
0F
0C
11
05
02
1(
0$
0'
1;
1B
09
1H
1E
1D
0:
01
17
14
13
0(
1"
1%
1&
#445000
1!
10
0)
#450000
0!
00
1)
1A
0@
0H
1G
0E
07
16
04
0"
1#
0%
#455000
1!
10
0)
#460000
0!
00
1)
0A
1@
1H
0G
1E
17
06
14
1"
0#
1%
1?
08
0H
1G
0E
0D
07
16
04
03
0"
1#
0%
0&
#465000
1!
10
0)
#470000
0!
00
1)
1A
0B
0@
0G
1E
1D
1C
11
06
14
13
12
1(
0#
1%
1&
1'
#475000
1!
10
0)
#480000
0!
00
1)
0A
1B
1@
1G
0E
0D
0C
01
16
04
03
02
0(
1#
0%
0&
0'
0?
18
1H
0G
1E
1D
17
06
14
13
1"
0#
1%
1&
0;
0B
19
0H
0E
0D
1:
11
07
04
03
1(
0"
0%
0&
1=
1B
0<
01
0(
#485000
1!
10
0)
#490000
0!
00
1)
1A
0@
1D
13
1&
#495000
1!
10
0)
#500000
0!
00
1)
0A
1@
0D
03
0&
1?
0B
1>
08
11
1(
0=
0?
0>
1<
18
#505000
1!
10
0)
#510000
0!
00
1)
1A
0@
1H
1E
1D
1C
17
14
13
12
1"
1%
1&
1'
#515000
1!
10
0)
#520000
0!
00
1)
0A
1@
0H
0E
0D
0C
07
04
03
02
0"
0%
0&
0'
1?
1B
08
1F
1C
01
15
12
0(
1$
1'
#525000
1!
10
0)
#530000
0!
00
1)
1A
0@
0F
1D
05
13
0$
1&
#535000
1!
10
0)
#540000
0!
00
1)
0A
1@
1F
0D
15
03
1$
0&
0?
0B
18
0F
0C
11
05
02
1(
0$
0'
1;
1B
09
1H
1E
1D
0:
01
17
14
13
0(
1"
1%
1&
#545000
1!
10
0)
#550000
0!
00
1)
1A
0@
0H
1G
0E
07
16
04
0"
1#
0%
#555000
1!
10
0)
#560000
0!
00
1)
0A
1@
1H
0G
1E
17
06
14
1"
0#
1%
1?
08
0H
1G
0E
0D
07
16
04
03
0"
1#
0%
0&
#565000
1!
10
0)
#570000
0!
00
1)
1A
0B
0@
0G
1E
1D
1C
11
06
14
13
12
1(
0#
1%
1&
1'
#575000
1!
10
0)
#580000
0!
00
1)
0A
1B
1@
1G
0E
0D
0C
01
16
04
03
02
0(
1#
0%
0&
0'
0?
18
1H
0G
1E
1D
17
06
14
13
1"
0#
1%
1&
0;
0B
19
0H
0E
0D
1:
11
07
04
03
1(
0"
0%
0&
1=
1B
0<
01
0(
#585000
1!
10
0)
#590000
0!
00
1)
1A
0@
1D
13
1&
#595000
1!
10
0)
#600000
0!
00
1)
0A
1@
0D
03
0&
1?
0B
1>
08
11
1(
0=
0?
0>
1<
18
#605000
1!
10
0)
#610000
0!
00
1)
1A
0@
1H
1E
1D
1C
17
14
13
12
1"
1%
1&
1'
#615000
1!
10
0)
#620000
0!
00
1)
0A
1@
0H
0E
0D
0C
07
04
03
02
0"
0%
0&
0'
1?
1B
08
1F
1C
01
15
12
0(
1$
1'
#625000
1!
10
0)
#630000
0!
00
1)
1A
0@
0F
1D
05
13
0$
1&
#635000
1!
10
0)
#640000
0!
00
1)
0A
1@
1F
0D
15
03
1$
0&
0?
0B
18
0F
0C
11
05
02
1(
0$
0'
1;
1B
09
1H
1E
1D
0:
01
17
14
13
0(
1"
1%
1&
#645000
1!
10
0)
#650000
0!
00
1)
1A
0@
0H
1G
0E
07
16
04
0"
1#
0%
#655000
1!
10
0)
#660000
0!
00
1)
0A
1@
1H
0G
1E
17
06
14
1"
0#
1%
1?
08
0H
1G
0E
0D
07
16
04
03
0"
1#
0%
0&
#665000
1!
10
0)
#670000
0!
00
1)
1A
0B
0@
0G
1E
1D
1C
11
06
14
13
12
1(
0#
1%
1&
1'
#675000
1!
10
0)
#680000
0!
00
1)
0A
1B
1@
1G
0E
0D
0C
01
16
04
03
02
0(
1#
0%
0&
0'
0?
18
1H
0G
1E
1D
17
06
14
13
1"
0#
1%
1&
0;
0B
19
0H
0E
0D
1:
11
07
04
03
1(
0"
0%
0&
1=
1B
0<
01
0(
#685000
1!
10
0)
#690000
0!
00
1)
1A
0@
1D
13
1&
#695000
1!
10
0)
#700000
0!
00
1)
0A
1@
0D
03
0&
1?
0B
1>
08
11
1(
0=
0?
0>
1<
18
#705000
1!
10
0)
#710000
0!
00
1)
1A
0@
1H
1E
1D
1C
17
14
13
12
1"
1%
1&
1'
#715000
1!
10
0)
#720000
0!
00
1)
0A
1@
0H
0E
0D
0C
07
04
03
02
0"
0%
0&
0'
1?
1B
08
1F
1C
01
15
12
0(
1$
1'
#725000
1!
10
0)
#730000
0!
00
1)
1A
0@
0F
1D
05
13
0$
1&
#735000
1!
10
0)
#740000
0!
00
1)
0A
1@
1F
0D
15
03
1$
0&
0?
0B
18
0F
0C
11
05
02
1(
0$
0'
1;
1B
09
1H
1E
1D
0:
01
17
14
13
0(
1"
1%
1&
#745000
1!
10
0)
#750000
0!
00
1)
1A
0@
0H
1G
0E
07
16
04
0"
1#
0%
#755000
1!
10
0)
#760000
0!
00
1)
0A
1@
1H
0G
1E
17
06
14
1"
0#
1%
1?
08
0H
1G
0E
0D
07
16
04
03
0"
1#
0%
0&
#765000
1!
10
0)
#770000
0!
00
1)
1A
0B
0@
0G
1E
1D
1C
11
06
14
13
12
1(
0#
1%
1&
1'
#775000
1!
10
0)
#780000
0!
00
1)
0A
1B
1@
1G
0E
0D
0C
01
16
04
03
02
0(
1#
0%
0&
0'
0?
18
1H
0G
1E
1D
17
06
14
13
1"
0#
1%
1&
0;
0B
19
0H
0E
0D
1:
11
07
04
03
1(
0"
0%
0&
1=
1B
0<
01
0(
#785000
1!
10
0)
#790000
0!
00
1)
1A
0@
1D
13
1&
#795000
1!
10
0)
#800000
0!
00
1)
0A
1@
0D
03
0&
1?
0B
1>
08
11
1(
0=
0?
0>
1<
18
#805000
1!
10
0)
#810000
0!
00
1)
1A
0@
1H
1E
1D
1C
17
14
13
12
1"
1%
1&
1'
#815000
1!
10
0)
#820000
0!
00
1)
0A
1@
0H
0E
0D
0C
07
04
03
02
0"
0%
0&
0'
1?
1B
08
1F
1C
01
15
12
0(
1$
1'
#825000
1!
10
0)
#830000
0!
00
1)
1A
0@
0F
1D
05
13
0$
1&
#835000
1!
10
0)
#840000
0!
00
1)
0A
1@
1F
0D
15
03
1$
0&
0?
0B
18
0F
0C
11
05
02
1(
0$
0'
1;
1B
09
1H
1E
1D
0:
01
17
14
13
0(
1"
1%
1&
#845000
1!
10
0)
#850000
0!
00
1)
1A
0@
0H
1G
0E
07
16
04
0"
1#
0%
#855000
1!
10
0)
#860000
0!
00
1)
0A
1@
1H
0G
1E
17
06
14
1"
0#
1%
1?
08
0H
1G
0E
0D
07
16
04
03
0"
1#
0%
0&
#865000
1!
10
0)
#870000
0!
00
1)
1A
0B
0@
0G
1E
1D
1C
11
06
14
13
12
1(
0#
1%
1&
1'
#875000
1!
10
0)
#880000
0!
00
1)
0A
1B
1@
1G
0E
0D
0C
01
16
04
03
02
0(
1#
0%
0&
0'
0?
18
1H
0G
1E
1D
17
06
14
13
1"
0#
1%
1&
0;
0B
19
0H
0E
0D
1:
11
07
04
03
1(
0"
0%
0&
1=
1B
0<
01
0(
#885000
1!
10
0)
#890000
0!
00
1)
1A
0@
1D
13
1&
#895000
1!
10
0)
#900000
0!
00
1)
0A
1@
0D
03
0&
1?
0B
1>
08
11
1(
0=
0?
0>
1<
18
#905000
1!
10
0)
#910000
0!
00
1)
1A
0@
1H
1E
1D
1C
17
14
13
12
1"
1%
1&
1'
#915000
1!
10
0)
#920000
0!
00
1)
0A
1@
0H
0E
0D
0C
07
04
03
02
0"
0%
0&
0'
1?
1B
08
1F
1C
01
15
12
0(
1$
1'
#925000
1!
10
0)
#930000
0!
00
1)
1A
0@
0F
1D
05
13
0$
1&
#935000
1!
10
0)
#940000
0!
00
1)
0A
1@
1F
0D
15
03
1$
0&
0?
0B
18
0F
0C
11
05
02
1(
0$
0'
1;
1B
09
1H
1E
1D
0:
01
17
14
13
0(
1"
1%
1&
#945000
1!
10
0)
#950000
0!
00
1)
1A
0@
0H
1G
0E
07
16
04
0"
1#
0%
#955000
1!
10
0)
#960000
0!
00
1)
0A
1@
1H
0G
1E
17
06
14
1"
0#
1%
1?
08
0H
1G
0E
0D
07
16
04
03
0"
1#
0%
0&
#965000
1!
10
0)
#970000
0!
00
1)
1A
0B
0@
0G
1E
1D
1C
11
06
14
13
12
1(
0#
1%
1&
1'
#975000
1!
10
0)
#980000
0!
00
1)
0A
1B
1@
1G
0E
0D
0C
01
16
04
03
02
0(
1#
0%
0&
0'
0?
18
1H
0G
1E
1D
17
06
14
13
1"
0#
1%
1&
0;
0B
19
0H
0E
0D
1:
11
07
04
03
1(
0"
0%
0&
1=
1B
0<
01
0(
#985000
1!
10
0)
#990000
0!
00
1)
1A
0@
1D
13
1&
#995000
1!
10
0)
