contadorCrescente/simulation/qsim/contadorCrescente.msim.vcd
$comment
	File created using the following command:
		vcd file contadorCrescente.msim.vcd -direction
$end
$date
	Wed Jun 06 02:44:54 2018
$end
$version
	ModelSim Version 10.1d
$end
$timescale
	1ps
$end
$scope module contadorCrescente_vlg_vec_tst $end
$var reg 1 ! clock $end
$var reg 1 " enable $end
$var reg 1 # reset $end
$var wire 1 $ dezena [3] $end
$var wire 1 % dezena [2] $end
$var wire 1 & dezena [1] $end
$var wire 1 ' dezena [0] $end
$var wire 1 ( q [5] $end
$var wire 1 ) q [4] $end
$var wire 1 * q [3] $end
$var wire 1 + q [2] $end
$var wire 1 , q [1] $end
$var wire 1 - q [0] $end
$var wire 1 . unidade [3] $end
$var wire 1 / unidade [2] $end
$var wire 1 0 unidade [1] $end
$var wire 1 1 unidade [0] $end
$var wire 1 2 sampler $end
$scope module i1 $end
$var wire 1 3 gnd $end
$var wire 1 4 vcc $end
$var wire 1 5 unknown $end
$var tri1 1 6 devclrn $end
$var tri1 1 7 devpor $end
$var tri1 1 8 devoe $end
$var wire 1 9 Mod0|auto_generated|divider|divider|add_sub_3_result_int[1]~0_combout $end
$var wire 1 : Mod0|auto_generated|divider|divider|add_sub_3_result_int[3]~4_combout $end
$var wire 1 ; Div0|auto_generated|divider|divider|add_sub_3_result_int[3]~4_combout $end
$var wire 1 < Div0|auto_generated|divider|divider|add_sub_4_result_int[1]~0_combout $end
$var wire 1 = Div0|auto_generated|divider|divider|add_sub_4_result_int[2]~2_combout $end
$var wire 1 > Mod0|auto_generated|divider|divider|StageOut[21]~25_combout $end
$var wire 1 ? Mod0|auto_generated|divider|divider|StageOut[20]~26_combout $end
$var wire 1 @ Mod0|auto_generated|divider|divider|StageOut[19]~29_combout $end
$var wire 1 A Mod0|auto_generated|divider|divider|StageOut[18]~30_combout $end
$var wire 1 B Mod0|auto_generated|divider|divider|StageOut[24]~32_combout $end
$var wire 1 C Div0|auto_generated|divider|divider|StageOut[18]~17_combout $end
$var wire 1 D Div0|auto_generated|divider|divider|StageOut[17]~18_combout $end
$var wire 1 E Div0|auto_generated|divider|divider|StageOut[16]~21_combout $end
$var wire 1 F Div0|auto_generated|divider|divider|StageOut[15]~22_combout $end
$var wire 1 G Div0|auto_generated|divider|divider|StageOut[22]~25_combout $end
$var wire 1 H Div0|auto_generated|divider|divider|StageOut[21]~27_combout $end
$var wire 1 I Div0|auto_generated|divider|divider|StageOut[20]~28_combout $end
$var wire 1 J Mod0|auto_generated|divider|divider|StageOut[28]~42_combout $end
$var wire 1 K Mod0|auto_generated|divider|divider|StageOut[27]~43_combout $end
$var wire 1 L Div0|auto_generated|divider|divider|StageOut[23]~30_combout $end
$var wire 1 M reset~combout $end
$var wire 1 N clock~combout $end
$var wire 1 O clock~clkctrl_outclk $end
$var wire 1 P enable~combout $end
$var wire 1 Q contagem[0]~5_combout $end
$var wire 1 R contagem[1]~6_combout $end
$var wire 1 S contagem[1]~7 $end
$var wire 1 T contagem[2]~9 $end
$var wire 1 U contagem[3]~10_combout $end
$var wire 1 V contagem[3]~11 $end
$var wire 1 W contagem[4]~12_combout $end
$var wire 1 X contagem[4]~13 $end
$var wire 1 Y contagem[5]~14_combout $end
$var wire 1 Z contagem[2]~8_combout $end
$var wire 1 [ Equal0~0_combout $end
$var wire 1 \ process_0~0_combout $end
$var wire 1 ] Mod0|auto_generated|divider|divider|add_sub_3_result_int[1]~1 $end
$var wire 1 ^ Mod0|auto_generated|divider|divider|add_sub_3_result_int[2]~3 $end
$var wire 1 _ Mod0|auto_generated|divider|divider|add_sub_3_result_int[3]~5 $end
$var wire 1 ` Mod0|auto_generated|divider|divider|add_sub_3_result_int[4]~6_combout $end
$var wire 1 a Mod0|auto_generated|divider|divider|StageOut[21]~24_combout $end
$var wire 1 b Mod0|auto_generated|divider|divider|add_sub_3_result_int[2]~2_combout $end
$var wire 1 c Mod0|auto_generated|divider|divider|StageOut[20]~27_combout $end
$var wire 1 d Mod0|auto_generated|divider|divider|StageOut[19]~28_combout $end
$var wire 1 e Mod0|auto_generated|divider|divider|StageOut[18]~31_combout $end
$var wire 1 f Mod0|auto_generated|divider|divider|add_sub_4_result_int[1]~1 $end
$var wire 1 g Mod0|auto_generated|divider|divider|add_sub_4_result_int[2]~3 $end
$var wire 1 h Mod0|auto_generated|divider|divider|add_sub_4_result_int[3]~5 $end
$var wire 1 i Mod0|auto_generated|divider|divider|add_sub_4_result_int[4]~7 $end
$var wire 1 j Mod0|auto_generated|divider|divider|add_sub_4_result_int[5]~8_combout $end
$var wire 1 k Mod0|auto_generated|divider|divider|add_sub_4_result_int[4]~6_combout $end
$var wire 1 l Mod0|auto_generated|divider|divider|StageOut[28]~34_combout $end
$var wire 1 m Mod0|auto_generated|divider|divider|add_sub_4_result_int[3]~4_combout $end
$var wire 1 n Mod0|auto_generated|divider|divider|StageOut[27]~35_combout $end
$var wire 1 o Mod0|auto_generated|divider|divider|add_sub_4_result_int[2]~2_combout $end
$var wire 1 p Mod0|auto_generated|divider|divider|StageOut[26]~36_combout $end
$var wire 1 q Mod0|auto_generated|divider|divider|StageOut[25]~37_combout $end
$var wire 1 r Mod0|auto_generated|divider|divider|StageOut[24]~33_combout $end
$var wire 1 s Mod0|auto_generated|divider|divider|add_sub_5_result_int[1]~1 $end
$var wire 1 t Mod0|auto_generated|divider|divider|add_sub_5_result_int[2]~3 $end
$var wire 1 u Mod0|auto_generated|divider|divider|add_sub_5_result_int[3]~5 $end
$var wire 1 v Mod0|auto_generated|divider|divider|add_sub_5_result_int[4]~7_cout $end
$var wire 1 w Mod0|auto_generated|divider|divider|add_sub_5_result_int[5]~9_cout $end
$var wire 1 x Mod0|auto_generated|divider|divider|add_sub_5_result_int[6]~10_combout $end
$var wire 1 y Mod0|auto_generated|divider|divider|add_sub_5_result_int[1]~0_combout $end
$var wire 1 z Mod0|auto_generated|divider|divider|StageOut[31]~39_combout $end
$var wire 1 { Mod0|auto_generated|divider|divider|add_sub_5_result_int[2]~2_combout $end
$var wire 1 | Mod0|auto_generated|divider|divider|add_sub_4_result_int[1]~0_combout $end
$var wire 1 } Mod0|auto_generated|divider|divider|StageOut[25]~38_combout $end
$var wire 1 ~ Mod0|auto_generated|divider|divider|StageOut[32]~40_combout $end
$var wire 1 !! Mod0|auto_generated|divider|divider|StageOut[26]~44_combout $end
$var wire 1 "! Mod0|auto_generated|divider|divider|add_sub_5_result_int[3]~4_combout $end
$var wire 1 #! Mod0|auto_generated|divider|divider|StageOut[33]~41_combout $end
$var wire 1 $! Div0|auto_generated|divider|divider|add_sub_3_result_int[1]~1 $end
$var wire 1 %! Div0|auto_generated|divider|divider|add_sub_3_result_int[2]~3 $end
$var wire 1 &! Div0|auto_generated|divider|divider|add_sub_3_result_int[3]~5 $end
$var wire 1 '! Div0|auto_generated|divider|divider|add_sub_3_result_int[4]~6_combout $end
$var wire 1 (! Div0|auto_generated|divider|divider|add_sub_3_result_int[2]~2_combout $end
$var wire 1 )! Div0|auto_generated|divider|divider|StageOut[17]~19_combout $end
$var wire 1 *! Div0|auto_generated|divider|divider|StageOut[16]~20_combout $end
$var wire 1 +! Div0|auto_generated|divider|divider|StageOut[15]~23_combout $end
$var wire 1 ,! Div0|auto_generated|divider|divider|add_sub_4_result_int[1]~1 $end
$var wire 1 -! Div0|auto_generated|divider|divider|add_sub_4_result_int[2]~3 $end
$var wire 1 .! Div0|auto_generated|divider|divider|add_sub_4_result_int[3]~4_combout $end
$var wire 1 /! Div0|auto_generated|divider|divider|StageOut[18]~16_combout $end
$var wire 1 0! Div0|auto_generated|divider|divider|add_sub_4_result_int[3]~5 $end
$var wire 1 1! Div0|auto_generated|divider|divider|add_sub_4_result_int[4]~7_cout $end
$var wire 1 2! Div0|auto_generated|divider|divider|add_sub_4_result_int[5]~8_combout $end
$var wire 1 3! Div0|auto_generated|divider|divider|StageOut[23]~24_combout $end
$var wire 1 4! Div0|auto_generated|divider|divider|add_sub_3_result_int[1]~0_combout $end
$var wire 1 5! Div0|auto_generated|divider|divider|StageOut[22]~31_combout $end
$var wire 1 6! Div0|auto_generated|divider|divider|StageOut[21]~26_combout $end
$var wire 1 7! Div0|auto_generated|divider|divider|StageOut[20]~29_combout $end
$var wire 1 8! Div0|auto_generated|divider|divider|add_sub_5_result_int[1]~1_cout $end
$var wire 1 9! Div0|auto_generated|divider|divider|add_sub_5_result_int[2]~3_cout $end
$var wire 1 :! Div0|auto_generated|divider|divider|add_sub_5_result_int[3]~5_cout $end
$var wire 1 ;! Div0|auto_generated|divider|divider|add_sub_5_result_int[4]~7_cout $end
$var wire 1 <! Div0|auto_generated|divider|divider|add_sub_5_result_int[5]~8_combout $end
$var wire 1 =! contagem [5] $end
$var wire 1 >! contagem [4] $end
$var wire 1 ?! contagem [3] $end
$var wire 1 @! contagem [2] $end
$var wire 1 A! contagem [1] $end
$var wire 1 B! contagem [0] $end
$upscope $end
$upscope $end
$enddefinitions $end
#0
$dumpvars
0!
1"
0#
0'
0&
0%
0$
0-
0,
0+
0*
0)
0(
01
00
0/
0.
x2
03
14
x5
16
17
18
19
0:
0;
1<
1=
0>
0?
0@
0A
0B
0C
0D
0E
0F
0G
0H
0I
0J
0K
0L
0M
0N
0O
1P
1Q
0R
0S
1T
0U
0V
0W
1X
0Y
0Z
0[
0\
0]
1^
0_
1`
0a
1b
0c
0d
0e
0f
1g
0h
1i
1j
1k
0l
0m
0n
1o
0p
0q
0r
0s
1t
0u
1v
0w
1x
1y
0z
1{
1|
0}
0~
0!!
0"!
0#!
0$!
1%!
0&!
1'!
1(!
0)!
0*!
0+!
0,!
1-!
0.!
0/!
00!
11!
12!
03!
14!
05!
06!
07!
08!
19!
0:!
1;!
1<!
0B!
0A!
0@!
0?!
0>!
0=!
$end
#5000
1!
1N
1O
02
1B!
1R
0Q
11
1-
#10000
0!
0N
0O
12
#15000
1!
1N
1O
02
0B!
1A!
1Q
1z
1I
1B
01
0-
1,
18!
1s
0y
10
09!
0t
0{
1"!
#20000
0!
0N
0O
12
#25000
1!
1N
1O
02
1B!
1S
0R
0Q
11
1-
1Z
#30000
0!
0N
0O
12
#35000
1!
1N
1O
02
0B!
1@!
0A!
0S
1Q
16!
1q
0T
0Z
1F
1A
0z
0I
0B
01
0-
1+
0,
1T
1Z
1~
1{
1U
1,!
0<
1f
0|
08!
0s
1y
00
0U
0-!
0=
0g
0o
0{
1/
1.!
1m
#40000
0!
0N
0O
12
#45000
1!
1N
1O
02
1B!
1R
0Q
11
1-
#50000
0!
0N
0O
12
#55000
1!
1N
1O
02
0B!
1A!
1Q
1z
1I
1B
01
0-
1,
18!
1s
0y
10
1{
#60000
0!
0N
0O
12
#65000
1!
1N
1O
02
1B!
1S
0R
0Q
11
1-
0T
0Z
1U
#70000
0!
0N
0O
12
#75000
1!
1N
1O
02
0B!
0@!
1?!
0A!
0S
1Q
06!
0q
1T
1Z
0F
0A
15!
1*!
1$!
04!
1!!
1d
1V
0U
1]
09
0z
0I
0B
01
0-
0+
1*
0,
0Z
0~
0{
0V
1U
0,!
1<
0f
1|
1:!
1=
0%!
0(!
1#!
1u
0"!
1o
1W
0^
0b
08!
0s
1y
00
0W
0=
0o
0;!
1;
0v
1:
19!
1t
1{
0/
1.
0<!
1w
0:!
0u
1"!
0x
1;!
1v
1'
1~
1z
1<!
0w
1x
1/
10
0'
0~
0z
0/
00
#80000
0!
0N
0O
12
#85000
1!
1N
1O
02
1B!
1R
0Q
11
1-
#90000
0!
0N
0O
12
#95000
1!
1N
1O
02
0B!
1A!
1Q
1z
1I
1B
01
0-
1,
18!
1s
0y
10
09!
0t
0{
1:!
1u
0"!
0;!
0v
0<!
1w
0x
1'
0#!
0z
0.
00
#100000
0!
0N
0O
12
#105000
1!
1N
1O
02
1B!
1S
0R
0Q
11
1-
1Z
#110000
0!
0N
0O
12
#115000
1!
1N
1O
02
0B!
1@!
0A!
1[
0S
1Q
16!
1q
0T
0Z
1F
1A
0I
0B
01
0-
1+
0,
1T
1Z
1{
1V
0U
1,!
0<
1f
0|
08!
0s
1y
0V
1U
1~
1W
1=
1o
0{
1z
0W
0~
1/
10
0/
#120000
0!
0N
0O
12
#125000
1!
1N
1O
02
1B!
0[
1R
0Q
11
1-
#130000
0!
0N
0O
12
#135000
1!
1N
1O
02
0B!
1A!
1Q
1I
1B
01
0-
1,
18!
1s
0y
1{
0z
1~
00
1/
#140000
0!
0N
0O
12
#145000
1!
1N
1O
02
1B!
1S
0R
0Q
11
1-
0T
0Z
1V
0U
1W
#150000
0!
0N
0O
12
#155000
1!
1N
1O
02
0B!
0@!
1>!
0?!
0A!
0S
1Q
06!
0q
1T
1Z
0F
0A
1(!
1b
0X
0W
1L
1K
1D
1?
05!
0*!
0$!
14!
0!!
0d
0V
1U
0]
19
0I
0B
01
0-
0+
1)
0*
0,
0Z
0{
0U
0,!
1<
0f
1|
1Y
10!
0.!
1h
0m
0:!
0=
0(!
0u
1"!
0o
1X
1W
0b
08!
0s
1y
0~
1-!
1=
1g
1o
01!
0i
0k
1#!
0Y
19!
1t
1{
1z
00!
1.!
0h
1m
02!
0j
0"!
1~
0/
1.
10
11!
13!
1i
1k
1n
0L
1H
1G
1}
1p
0K
0#!
1/
1&
12!
1j
1l
09!
0t
0{
1"!
0.
03!
1L
0H
0G
0}
0p
0n
0l
1K
1:!
1u
0"!
0~
1#!
0&
19!
0:!
1t
1{
0#!
0u
1"!
0/
1.
0"!
1~
1#!
0.
0#!
1/
1.
0.
#160000
0!
0N
0O
12
#165000
1!
1N
1O
02
1B!
1R
0Q
11
1-
#170000
0!
0N
0O
12
#175000
1!
1N
1O
02
0B!
1A!
1Q
1I
1B
01
0-
1,
18!
1s
0y
09!
0t
0{
0z
1"!
0~
00
1#!
0/
1.
#180000
0!
0N
0O
12
#185000
1!
1N
1O
02
1B!
1S
0R
0Q
11
1-
1Z
#190000
0!
0N
0O
12
#195000
1!
1N
1O
02
0B!
1@!
0A!
0S
1Q
16!
1q
0T
0Z
1F
1A
0I
0B
01
0-
1+
0,
1T
1Z
1{
1U
1,!
0<
1f
0|
08!
0s
1y
0U
1~
0-!
0=
0g
0o
0{
1z
10!
0.!
1h
0m
0~
1/
10
01!
0i
0k
0/
02!
0j
06!
0L
0q
0K
1&
19!
1;!
1t
1{
1v
1<!
0"!
1~
0w
0#!
1x
1/
0'
0~
0z
0.
0/
00
#200000
0!
0N
0O
12
#205000
1!
1N
1O
02
1B!
1R
0Q
11
1-
#210000
0!
0N
0O
12
#215000
1!
1N
1O
02
0B!
1A!
1Q
17!
1z
1r
01
0-
1,
18!
1s
0y
10
09!
0t
0{
1"!
#220000
0!
0N
0O
12
#225000
1!
1N
1O
02
1B!
1S
0R
0Q
11
1-
0T
0Z
1U
#230000
0!
0N
0O
12
#235000
1!
1N
1O
02
0B!
0@!
1?!
0A!
0S
1Q
1T
1Z
0F
0A
1*!
1$!
04!
1d
1V
0U
1]
09
07!
0z
0r
01
0-
0+
1*
0,
0Z
0V
1U
0,!
1<
0f
1|
1=
1(!
1o
0X
0W
1b
08!
0s
1y
00
1X
1W
0=
1H
0o
1}
1G
1p
1Y
19!
1t
1{
0Y
0G
09!
0p
1~
0t
0{
1#!
0#!
1/
1.
0.
#240000
0!
0N
0O
12
#245000
1!
1N
1O
02
1B!
1R
0Q
11
1-
#250000
0!
0N
0O
12
#255000
1!
1N
1O
02
0B!
1A!
1Q
17!
1z
1r
01
0-
1,
18!
1s
0y
10
1{
#260000
0!
0N
0O
12
#265000
1!
1N
1O
02
1B!
1S
0R
0Q
11
1-
1Z
#270000
0!
0N
0O
12
#275000
1!
1N
1O
02
0B!
1@!
0A!
1[
0S
1Q
0T
0Z
1F
1A
07!
0z
0r
01
0-
1+
0,
1T
1Z
1V
0U
1,!
0<
1f
0|
08!
0s
1y
00
0V
1U
0X
0W
1=
0H
1o
0}
0{
1X
1W
1Y
1G
19!
1p
0~
1t
1{
0Y
1#!
0/
1.
#280000
0!
0N
0O
12
#285000
1!
1N
1O
02
1B!
0[
1R
0Q
11
1-
#290000
0!
0N
0O
12
#295000
1!
1N
1O
02
0B!
1A!
1Q
17!
1z
1r
01
0-
1,
18!
1s
0y
10
09!
0t
0{
1:!
1u
0"!
0;!
0v
0<!
1w
0x
1'
0#!
0z
0.
00
#300000
0!
0N
0O
12
#305000
1!
1N
1O
02
1B!
1S
0R
0Q
11
1-
0T
0Z
1V
0U
0X
0W
1Y
#310000
0!
0N
0O
12
#315000
1!
1N
1O
02
0B!
0@!
1=!
0>!
0?!
0A!
0S
1Q
1T
1Z
0F
0A
1/!
1a
0Y
1&!
0;
1_
0:
0(!
0b
1X
1W
0D
0?
0*!
0$!
14!
0d
0V
1U
0]
19
07!
0r
01
0-
0+
1(
0)
0*
0,
0Z
0U
0,!
1<
0f
1|
1k
0'!
0`
1Y
00!
1.!
0h
1m
0=
1%!
1(!
0o
0W
1^
1b
08!
0s
1y
1-!
1=
1H
1g
1o
1}
1l
0/!
1)!
1E
1c
0a
1@
13!
0k
1n
0G
0&!
1;
0p
0_
1:
19!
1t
1{
1z
1%
1G
09!
1p
1~
0t
0{
11!
0-!
0=
1i
1k
0g
0o
0l
0:!
1'!
1C
0u
1`
1>
10
1:!
1u
0~
12!
10!
0.!
0G
1j
1l
1h
0m
0p
1/!
0)!
0E
0C
01!
0c
1a
0@
0>
0i
0k
1/
0%
03!
0H
0:!
0}
0n
0l
1J
1k
0u
1"!
00!
1.!
1-!
1=
02!
0h
1m
1g
1o
0j
0/
0&
1;!
19!
1t
1{
1v
1l
1#!
13!
0.!
1G
1H
0k
1n
0m
1p
1}
0J
1&
1<!
1~
0;!
03!
09!
0l
0v
0n
0t
0{
1.
0<!
1;!
1:!
1v
1u
0"!
0~
1/
0'
1<!
0;!
0w
0v
0#!
0/
1'
0<!
1x
1w
0.
0'
1#!
1~
0z
0x
1'
0#!
0~
1z
1.
1/
00
0.
0/
10
#320000
0!
0N
0O
12
#325000
1!
1N
1O
02
1B!
1R
0Q
11
1-
#330000
0!
0N
0O
12
#335000
1!
1N
1O
02
0B!
1A!
1Q
17!
1r
01
0-
1,
18!
1s
0y
1{
0z
1~
00
1/
#340000
0!
0N
0O
12
#345000
1!
1N
1O
02
1B!
1S
0R
0Q
11
1-
1Z
#350000
0!
0N
0O
12
#355000
1!
1N
1O
02
0B!
1@!
0A!
0S
1Q
0T
0Z
1F
1A
07!
0r
01
0-
1+
0,
1T
1Z
1U
1,!
0<
1f
0|
08!
0s
1y
0U
0-!
0=
0H
0g
0o
0}
0{
1z
1.!
0G
19!
1m
0p
0~
1t
1{
10
13!
0:!
1n
0u
1~
0/
1/
#360000
0!
0N
0O
12
#365000
1!
1N
1O
02
1B!
1R
0Q
11
1-
#370000
0!
0N
0O
12
#375000
1!
1N
1O
02
0B!
1A!
1Q
17!
1r
01
0-
1,
18!
1s
0y
09!
0t
0{
0z
1"!
0~
00
1#!
0/
1.
#380000
0!
0N
0O
12
#385000
1!
1N
1O
02
1B!
1S
0R
0Q
11
1-
0T
0Z
1U
#390000
0!
0N
0O
12
#395000
1!
1N
1O
02
0B!
0@!
1?!
0A!
0S
1Q
1T
1Z
0F
0A
1*!
1$!
04!
1d
1V
0U
1]
09
07!
0r
01
0-
0+
1*
0,
0Z
0V
1U
0,!
1<
0f
1|
1=
0%!
0(!
1o
1W
0^
0b
08!
0s
1y
0W
0=
1H
0o
1}
1G
1&!
0;
1p
1_
0:
19!
1t
1{
1z
0G
09!
0p
1~
0t
0{
0'!
0`
10
0~
0/!
0*!
0d
0a
1/
1%
11!
1-!
1=
1g
1o
1i
1k
0/
12!
0.!
1G
0m
1p
1j
1l
03!
0H
0G
1:!
0n
1u
0"!
0}
0p
0l
0&
19!
0:!
0#!
1t
1{
0u
1"!
1;!
0"!
1~
1v
1#!
0.
1<!
0#!
0w
1/
1.
1x
0.
0'
0~
0z
0/
00
#400000
0!
0N
0O
12
#405000
1!
1N
1O
02
1B!
1R
0Q
11
1-
#410000
0!
0N
0O
12
#415000
1!
1N
1O
02
0B!
1A!
1Q
1z
1I
1B
01
0-
1,
18!
1s
0y
10
09!
0t
0{
1"!
#420000
0!
0N
0O
12
#425000
1!
1N
1O
02
1B!
1S
0R
0Q
11
1-
1Z
#430000
0!
0N
0O
12
#435000
1!
1N
1O
02
0B!
1@!
0A!
1[
0S
1Q
16!
1+!
1q
1e
0T
0Z
0z
0I
0B
01
0-
1+
0,
1T
1Z
1,!
0<
1~
1{
1f
0|
1V
0U
08!
0s
1y
00
0V
1U
0-!
0=
0g
0o
1W
0{
1/
0W
1.!
1m
#440000
0!
0N
0O
12
#445000
1!
1N
1O
02
1B!
0[
1R
0Q
11
1-
#450000
0!
0N
0O
12
#455000
1!
1N
1O
02
0B!
1A!
1Q
1z
1I
1B
01
0-
1,
18!
1s
0y
10
1{
#460000
0!
0N
0O
12
#465000
1!
1N
1O
02
1B!
1S
0R
0Q
11
1-
0T
0Z
1V
0U
1W
#470000
0!
0N
0O
12
#475000
1!
1N
1O
02
0B!
0@!
1>!
0?!
0A!
0S
1Q
06!
0+!
0q
0e
1T
1Z
1(!
1b
0X
0W
0$!
14!
0V
1U
0]
19
0z
0I
0B
01
0-
0+
1)
0*
0,
0Z
0,!
1<
0~
0{
0f
1|
0U
1)!
1L
1c
1K
0Y
0(!
15!
1E
1X
1W
0b
1!!
1@
08!
0s
1y
00
10!
0.!
0;!
1h
0m
0v
0)!
0L
1:!
1Y
0c
0K
1#!
1u
0"!
19!
1t
1{
0/
01!
0<!
0i
0k
1w
00!
1.!
0h
1m
0:!
0u
1"!
1.
02!
0j
0x
11!
1i
1k
1;!
1v
1'
05!
13!
1H
0!!
1}
1n
1l
1~
1z
12!
1j
1<!
0w
1&
0;!
09!
0"!
0t
0{
0v
1w
15!
03!
0H
1!!
0}
0n
0l
1x
1/
10
0&
0'
0<!
1:!
1u
0~
0x
1;!
19!
1t
1{
1v
0z
0;!
0v
0#!
1~
1z
1<!
0:!
0u
1"!
0w
0/
00
1'
0<!
1w
1;!
1v
1#!
1x
0.
1/
10
0'
0x
1<!
0w
0~
0z
1.
1'
1~
1z
1x
0/
00
0'
0~
0z
1/
10
0/
00
#480000
0!
0N
0O
12
#485000
1!
1N
1O
02
1B!
1R
0Q
11
1-
#490000
0!
0N
0O
12
#495000
1!
1N
1O
02
0B!
1A!
1Q
1z
1I
1B
01
0-
1,
18!
1s
0y
10
09!
0t
0{
1:!
1u
0"!
0;!
0v
0<!
1w
0x
1'
0#!
0z
0.
00
#500000
0!
0N
0O
12
#505000
1!
1N
1O
02
1B!
1S
0R
0Q
11
1-
1Z
#510000
0!
0N
0O
12
#515000
1!
1N
1O
02
0B!
1@!
0A!
0S
1Q
16!
1+!
1q
1e
0T
0Z
0I
0B
01
0-
1+
0,
1T
1Z
1,!
0<
1{
1f
0|
1U
08!
0s
1y
0U
1=
1~
1o
0{
1z
0~
1/
10
0/
#520000
0!
0N
0O
12
#525000
1!
1N
1O
02
1B!
1R
0Q
11
1-
#530000
0!
0N
0O
12
#535000
1!
1N
1O
02
0B!
1A!
1Q
1I
1B
01
0-
1,
18!
1s
0y
1{
0z
1~
00
1/
#540000
0!
0N
0O
12
#545000
1!
1N
1O
02
1B!
1S
0R
0Q
11
1-
0T
0Z
1U
#550000
0!
0N
0O
12
#555000
1!
1N
1O
02
0B!
0@!
1?!
0A!
0S
1Q
06!
0+!
0q
0e
1T
1Z
1$!
04!
1V
0U
1]
09
0I
0B
01
0-
0+
1*
0,
0Z
0,!
1<
0{
0f
1|
0V
1U
1(!
05!
0E
0X
0W
1b
0!!
0@
08!
0s
1y
1-!
0~
1g
1X
1W
1)!
1L
0:!
0Y
1c
1K
0u
1"!
19!
1t
1{
1z
1Y
1#!
0"!
1~
0/
10
0#!
1.
1/
0.
#560000
0!
0N
0O
12
#565000
1!
1N
1O
02
1B!
1R
0Q
11
1-
#570000
0!
0N
0O
12
#575000
1!
1N
1O
02
0B!
1A!
1Q
1I
1B
01
0-
1,
18!
1s
0y
09!
0t
0{
0z
1"!
0~
00
1#!
0/
1.
#580000
0!
0N
0O
12
#585000
1!
1N
1O
02
1B!
1S
0R
0Q
11
1-
1Z
#590000
0!
0N
0O
12
#595000
1!
1N
1O
02
0B!
1@!
0A!
1[
0S
1Q
16!
1+!
1q
1e
0T
0Z
0I
0B
01
0-
1+
0,
1\
1T
1Z
1,!
0<
1{
1f
0|
1V
0U
08!
0s
1y
0V
1U
0-!
0=
1~
0g
0o
0X
0W
0{
1z
1X
1W
10!
0.!
1h
0m
0Y
0~
1/
10
1Y
01!
0i
0k
0/
02!
0j
06!
0L
0q
0K
1&
19!
1;!
1t
1{
1v
1<!
0"!
1~
0w
0#!
1x
1/
0'
0~
0z
0.
0/
00
0@!
0=!
0>!
0?!
0+!
0e
0[
0Z
0\
0Y
0&!
1;
0_
1:
0(!
0b
0W
0$!
14!
0U
0]
19
0+
0(
0)
0*
0,!
1<
0f
1|
1'!
1C
1`
1>
0)!
0c
1%!
1(!
1E
1^
1b
1@
1H
1}
0E
0C
0@
0>
1k
00!
1.!
0h
1m
0;
0:
0%
09!
1~
0t
0{
1-!
1=
11!
1g
1o
1i
1l
13!
1n
1"!
0.!
1G
12!
0m
1p
1j
1w
0;!
0v
1/
1#!
03!
1:!
0H
0G
0n
1u
0"!
0}
0p
0l
0x
0<!
0&
19!
0:!
0#!
0~
1t
1{
0u
1"!
1z
1.
1'
1;!
0"!
1~
1v
1#!
0.
0/
10
1<!
0#!
0w
1/
1.
1x
0.
0'
0~
0z
0/
00
#600000
0!
0N
0O
12
#605000
1!
1N
1O
02
1B!
1R
0Q
11
1-
#610000
0!
0N
0O
12
#615000
1!
1N
1O
02
0B!
1A!
1Q
1z
1I
1B
01
0-
1,
18!
1s
0y
10
09!
0t
0{
1"!
#620000
0!
0N
0O
12
#625000
1!
1N
1O
02
1B!
1S
0R
0Q
11
1-
1Z
#630000
0!
0N
0O
12
#635000
1!
1N
1O
02
0B!
1@!
0A!
0S
1Q
16!
1q
0T
0Z
1F
1A
0z
0I
0B
01
0-
1+
0,
1T
1Z
1~
1{
1U
1,!
0<
1f
0|
08!
0s
1y
00
0U
0-!
0=
0g
0o
0{
1/
1.!
1m
#640000
0!
0N
0O
12
#645000
1!
1N
1O
02
1B!
1R
0Q
11
1-
#650000
0!
0N
0O
12
#655000
1!
1N
1O
02
0B!
1A!
1Q
1z
1I
1B
01
0-
1,
18!
1s
0y
10
1{
#660000
0!
0N
0O
12
#665000
1!
1N
1O
02
1B!
1S
0R
0Q
11
1-
0T
0Z
1U
#670000
0!
0N
0O
12
#675000
1!
1N
1O
02
0B!
0@!
1?!
0A!
0S
1Q
06!
0q
1T
1Z
0F
0A
15!
1*!
1$!
04!
1!!
1d
1V
0U
1]
09
0z
0I
0B
01
0-
0+
1*
0,
0Z
0~
0{
0V
1U
0,!
1<
0f
1|
1:!
1=
0%!
0(!
1#!
1u
0"!
1o
1W
0^
0b
08!
0s
1y
00
0W
0=
0o
0;!
1;
0v
1:
19!
1t
1{
0/
1.
0<!
1w
0:!
0u
1"!
0x
1;!
1v
1'
1~
1z
1<!
0w
1x
1/
10
0'
0~
0z
0/
00
#680000
0!
0N
0O
12
#685000
1!
1N
1O
02
1B!
1R
0Q
11
1-
#690000
0!
0N
0O
12
#695000
1!
1N
1O
02
0B!
1A!
1Q
1z
1I
1B
01
0-
1,
18!
1s
0y
10
09!
0t
0{
1:!
1u
0"!
0;!
0v
0<!
1w
0x
1'
0#!
0z
0.
00
#700000
0!
0N
0O
12
#705000
1!
1N
1O
02
1B!
1S
0R
0Q
11
1-
1Z
#710000
0!
0N
0O
12
#715000
1!
1N
1O
02
0B!
1@!
0A!
1[
0S
1Q
16!
1q
0T
0Z
1F
1A
0I
0B
01
0-
1+
0,
1T
1Z
1{
1V
0U
1,!
0<
1f
0|
08!
0s
1y
0V
1U
1~
1W
1=
1o
0{
1z
0W
0~
1/
10
0/
#720000
0!
0N
0O
12
#725000
1!
1N
1O
02
1B!
0[
1R
0Q
11
1-
#730000
0!
0N
0O
12
#735000
1!
1N
1O
02
0B!
1A!
1Q
1I
1B
01
0-
1,
18!
1s
0y
1{
0z
1~
00
1/
#740000
0!
0N
0O
12
#745000
1!
1N
1O
02
1B!
1S
0R
0Q
11
1-
0T
0Z
1V
0U
1W
#750000
0!
0N
0O
12
#755000
1!
1N
1O
02
0B!
0@!
1>!
0?!
0A!
0S
1Q
06!
0q
1T
1Z
0F
0A
1(!
1b
0X
0W
1L
1K
1D
1?
05!
0*!
0$!
14!
0!!
0d
0V
1U
0]
19
0I
0B
01
0-
0+
1)
0*
0,
0Z
0{
0U
0,!
1<
0f
1|
1Y
10!
0.!
1h
0m
0:!
0=
0(!
0u
1"!
0o
1X
1W
0b
08!
0s
1y
0~
1-!
1=
1g
1o
01!
0i
0k
1#!
0Y
19!
1t
1{
1z
00!
1.!
0h
1m
02!
0j
0"!
1~
0/
1.
10
11!
13!
1i
1k
1n
0L
1H
1G
1}
1p
0K
0#!
1/
1&
12!
1j
1l
09!
0t
0{
1"!
0.
03!
1L
0H
0G
0}
0p
0n
0l
1K
1:!
1u
0"!
0~
1#!
0&
19!
0:!
1t
1{
0#!
0u
1"!
0/
1.
0"!
1~
1#!
0.
0#!
1/
1.
0.
#760000
0!
0N
0O
12
#765000
1!
1N
1O
02
1B!
1R
0Q
11
1-
#770000
0!
0N
0O
12
#775000
1!
1N
1O
02
0B!
1A!
1Q
1I
1B
01
0-
1,
18!
1s
0y
09!
0t
0{
0z
1"!
0~
00
1#!
0/
1.
#780000
0!
0N
0O
12
#785000
1!
1N
1O
02
1B!
1S
0R
0Q
11
1-
1Z
